Pipeline/waveform.vcd
$date
	Fri Aug 15 15:28:06 2025
$end
$version
	Icarus Verilog
$end
$timescale
	1s
$end
$scope module Pipeline_Tb $end
$var reg 1 ! t_r_btn_enable_d_s_o $end
$var reg 1 " t_r_clk $end
$var reg 1 # t_r_rst $end
$scope module DUT $end
$var wire 1 ! i_btn_enable_d_s_o $end
$var wire 1 " i_clk $end
$var wire 1 # i_rst $end
$var wire 5 $ w_rs2_e [4:0] $end
$var wire 5 % w_rs2_d [4:0] $end
$var wire 5 & w_rs1_e [4:0] $end
$var wire 5 ' w_rs1_d [4:0] $end
$var wire 2 ( w_result_src [1:0] $end
$var wire 1 ) w_res_src_b0_e $end
$var wire 1 * w_reg_write $end
$var wire 5 + w_rd_w [4:0] $end
$var wire 5 , w_rd_m [4:0] $end
$var wire 5 - w_rd_e [4:0] $end
$var wire 1 . w_pc_stall $end
$var wire 2 / w_pc_src_e [1:0] $end
$var wire 7 0 w_opcode [6:0] $end
$var wire 1 1 w_mem_write $end
$var wire 1 2 w_jmp_e $end
$var wire 1 3 w_jmp_d $end
$var wire 3 4 w_imm_src [2:0] $end
$var wire 1 5 w_if_id_stall $end
$var wire 1 6 w_if_id_flush $end
$var wire 1 7 w_id_ex_flush $end
$var wire 2 8 w_fw_b_e [1:0] $end
$var wire 1 9 w_fw_b_d $end
$var wire 2 : w_fw_a_e [1:0] $end
$var wire 1 ; w_fw_a_d $end
$var wire 1 < w_f7_b6 $end
$var wire 3 = w_f3 [2:0] $end
$var wire 1 > w_branch $end
$var wire 1 ? w_alu_src $end
$var wire 3 @ w_alu_ctl [2:0] $end
$var reg 1 A r_clk_en $end
$scope module Control_Path_Inst $end
$var wire 1 > o_branch $end
$var wire 1 3 o_jmp $end
$var wire 1 B w_jmp $end
$var wire 1 C w_branch $end
$var wire 2 D w_alu_op [1:0] $end
$var wire 2 E o_result_src [1:0] $end
$var wire 1 * o_reg_write $end
$var wire 1 1 o_mem_write $end
$var wire 3 F o_imm_src [2:0] $end
$var wire 1 ? o_alu_src $end
$var wire 3 G o_alu_ctl [2:0] $end
$var wire 7 H i_opcode [6:0] $end
$var wire 1 < i_f7_b6 $end
$var wire 3 I i_f3 [2:0] $end
$scope module Control_ALU_Inst $end
$var wire 3 J o_alu_ctl [2:0] $end
$var wire 1 < i_f7_b6 $end
$var wire 3 K i_f3 [2:0] $end
$var wire 2 L i_alu_op [1:0] $end
$upscope $end
$scope module Control_Unit_Inst $end
$var wire 2 M o_result_src [1:0] $end
$var wire 1 * o_reg_write $end
$var wire 1 1 o_mem_write $end
$var wire 1 B o_jmp $end
$var wire 3 N o_imm_src [2:0] $end
$var wire 1 C o_branch $end
$var wire 1 ? o_alu_src $end
$var wire 2 O o_alu_op [1:0] $end
$var wire 7 P i_opcode [6:0] $end
$upscope $end
$upscope $end
$scope module Data_Path_Inst $end
$var wire 3 Q i_alu_ctl_d [2:0] $end
$var wire 1 ? i_alu_src_d $end
$var wire 1 > i_branch_d $end
$var wire 1 " i_clk $end
$var wire 1 A i_clk_en $end
$var wire 3 R i_imm_src_d [2:0] $end
$var wire 1 3 i_jmp_d $end
$var wire 1 1 i_mem_write_d $end
$var wire 1 S i_pc_wr_en_h $end
$var wire 1 * i_reg_write_d $end
$var wire 2 T i_result_src_d [1:0] $end
$var wire 1 # i_rst $end
$var wire 1 2 o_jmp_e $end
$var wire 2 U o_pc_src_e [1:0] $end
$var wire 5 V o_rd_e [4:0] $end
$var wire 5 W o_rd_m [4:0] $end
$var wire 5 X o_rd_w [4:0] $end
$var wire 5 Y o_rs1_e [4:0] $end
$var wire 5 Z o_rs2_e [4:0] $end
$var wire 1 [ w_zero_e $end
$var wire 1 \ w_txt_en_f $end
$var wire 1 ] w_tv_en_f $end
$var wire 1 ^ w_stk_en_m $end
$var wire 1 _ w_rv_en_f $end
$var wire 5 ` w_rs2_e [4:0] $end
$var wire 5 a w_rs1_e [4:0] $end
$var wire 32 b w_result_w [31:0] $end
$var wire 2 c w_result_src_w [1:0] $end
$var wire 2 d w_result_src_m [1:0] $end
$var wire 2 e w_result_src_e [1:0] $end
$var wire 32 f w_regs_do2_e [31:0] $end
$var wire 32 g w_regs_do2_d [31:0] $end
$var wire 32 h w_regs_do1_e [31:0] $end
$var wire 32 i w_regs_do1_d [31:0] $end
$var wire 1 j w_reg_write_w $end
$var wire 1 k w_reg_write_e $end
$var wire 1 l w_reg_wr_m $end
$var wire 5 m w_rd_w [4:0] $end
$var wire 5 n w_rd_m [4:0] $end
$var wire 5 o w_rd_e [4:0] $end
$var wire 1 p w_pc_trap_sel_f $end
$var wire 1 q w_pc_trap_sel_e $end
$var wire 2 r w_pc_src_e [1:0] $end
$var wire 32 s w_pc_p4_w [31:0] $end
$var wire 32 t w_pc_p4_m [31:0] $end
$var wire 32 u w_pc_p4_f [31:0] $end
$var wire 32 v w_pc_p4_e [31:0] $end
$var wire 32 w w_pc_p4_d [31:0] $end
$var wire 32 x w_pc_out_f [31:0] $end
$var wire 32 y w_pc_in_f [31:0] $end
$var wire 7 z w_opcode_e [6:0] $end
$var wire 1 { w_mem_write_m $end
$var wire 1 | w_mem_write_e $end
$var wire 32 } w_mem_out_w [31:0] $end
$var wire 32 ~ w_mem_out_m [31:0] $end
$var wire 1 !" w_jmp_e $end
$var wire 1 "" w_io_en_m $end
$var wire 32 #" w_instr_f [31:0] $end
$var wire 32 $" w_instr_d [31:0] $end
$var wire 32 %" w_imm_32b_e [31:0] $end
$var wire 32 &" w_imm_32b_d [31:0] $end
$var wire 1 '" w_if_id_flush_exception_m $end
$var wire 1 (" w_id_ex_flush_exception_m $end
$var wire 32 )" w_haz_rs2_e [31:0] $end
$var wire 32 *" w_haz_rs1_e [31:0] $end
$var wire 32 +" w_haz_do2_d [31:0] $end
$var wire 32 ," w_haz_do1_d [31:0] $end
$var wire 32 -" w_haz_b_m [31:0] $end
$var wire 1 ." w_glb_en_m $end
$var wire 4 /" w_exception_code_f [3:0] $end
$var wire 4 0" w_exception_code_e [3:0] $end
$var wire 32 1" w_effective_addr_m [31:0] $end
$var wire 1 2" w_dm_en_m $end
$var wire 1 3" w_branch_e $end
$var wire 1 4" w_alu_src_e $end
$var wire 32 5" w_alu_out_w [31:0] $end
$var wire 32 6" w_alu_out_m [31:0] $end
$var wire 32 7" w_alu_out_e [31:0] $end
$var wire 32 8" w_alu_op_b_e [31:0] $end
$var wire 3 9" w_alu_ctl_e [2:0] $end
$var wire 5 :" o_rs2_d [4:0] $end
$var wire 5 ;" o_rs1_d [4:0] $end
$var wire 1 ) o_res_src_b0_e $end
$var wire 7 <" o_opcode_d [6:0] $end
$var wire 1 < o_f7_b6_d $end
$var wire 3 =" o_f3_d [2:0] $end
$var wire 1 5 i_if_id_stall_h $end
$var wire 1 6 i_if_id_flush_h $end
$var wire 1 7 i_id_ex_flush_h $end
$var wire 2 >" i_fw_b_e [1:0] $end
$var wire 1 9 i_fw_b_d $end
$var wire 2 ?" i_fw_a_e [1:0] $end
$var wire 1 ; i_fw_a_d $end
$var reg 2 @" r_pc_state [1:0] $end
$scope module ALU_Main_Inst $end
$var wire 32 A" i_op_a [31:0] $end
$var wire 32 B" i_op_b [31:0] $end
$var wire 1 [ o_zero $end
$var wire 32 C" o_alu_out [31:0] $end
$var wire 3 D" i_alu_op [2:0] $end
$upscope $end
$scope module EX_MEM_Inst $end
$var wire 32 E" i_alu_out_e [31:0] $end
$var wire 1 " i_clk $end
$var wire 1 A i_clk_en $end
$var wire 32 F" i_haz_b_e [31:0] $end
$var wire 1 # i_rst $end
$var wire 32 G" o_haz_b_m [31:0] $end
$var wire 1 (" o_id_ex_flush_exception_m $end
$var wire 1 '" o_if_id_flush_exception_m $end
$var wire 1 { o_mem_write_m $end
$var wire 32 H" o_pc_p4_m [31:0] $end
$var wire 1 l o_reg_wr_m $end
$var wire 2 I" o_result_src_m [1:0] $end
$var wire 1 J" w_exception_ex_stage $end
$var wire 5 K" o_rd_m [4:0] $end
$var wire 32 L" o_alu_out_m [31:0] $end
$var wire 2 M" i_result_src_e [1:0] $end
$var wire 1 k i_reg_wr_e $end
$var wire 5 N" i_rd_e [4:0] $end
$var wire 32 O" i_pc_p4_e [31:0] $end
$var wire 1 | i_mem_write_e $end
$var wire 4 P" i_exception_code_e [3:0] $end
$var reg 32 Q" r_alu_out_e [31:0] $end
$var reg 32 R" r_haz_b_e [31:0] $end
$var reg 1 S" r_mem_write_e $end
$var reg 32 T" r_pc_p4_e [31:0] $end
$var reg 5 U" r_rd_e [4:0] $end
$var reg 1 V" r_reg_wr_e $end
$var reg 2 W" r_result_src_e [1:0] $end
$upscope $end
$scope module Exception_Signals_Handler_Inst $end
$var wire 32 X" i_alu_out_e [31:0] $end
$var wire 7 Y" i_opcode_f [6:0] $end
$var wire 32 Z" i_pc_f [31:0] $end
$var wire 2 [" i_pc_state [1:0] $end
$var wire 1 \" w_pc_f_b20 $end
$var wire 4 ]" o_exception_code_f [3:0] $end
$var wire 4 ^" o_exception_code_e [3:0] $end
$var wire 2 _" i_res_src_e [1:0] $end
$var wire 1 k i_reg_write_e $end
$var wire 5 `" i_rd_e [4:0] $end
$var wire 1 | i_mem_write_e $end
$upscope $end
$scope module ID_EX_Inst $end
$var wire 3 a" i_alu_ctl_d [2:0] $end
$var wire 1 ? i_alu_src_d $end
$var wire 1 > i_branch_d $end
$var wire 1 " i_clk $end
$var wire 1 A i_clk_en $end
$var wire 1 (" i_id_ex_flush_exception_m $end
$var wire 1 3 i_jmp_d $end
$var wire 1 1 i_mem_write_d $end
$var wire 7 b" i_opcode_d [6:0] $end
$var wire 5 c" i_rd_d [4:0] $end
$var wire 1 * i_reg_wr_d $end
$var wire 32 d" i_regs_do1_d [31:0] $end
$var wire 32 e" i_regs_do2_d [31:0] $end
$var wire 2 f" i_result_src_d [1:0] $end
$var wire 5 g" i_rs1_d [4:0] $end
$var wire 5 h" i_rs2_d [4:0] $end
$var wire 1 # i_rst $end
$var wire 32 i" o_pc_p4_e [31:0] $end
$var wire 5 j" o_rs2_e [4:0] $end
$var wire 5 k" o_rs1_e [4:0] $end
$var wire 2 l" o_result_src_e [1:0] $end
$var wire 32 m" o_regs_do2_e [31:0] $end
$var wire 32 n" o_regs_do1_e [31:0] $end
$var wire 1 k o_reg_wr_e $end
$var wire 5 o" o_rd_e [4:0] $end
$var wire 7 p" o_opcode_e [6:0] $end
$var wire 1 | o_mem_write_e $end
$var wire 1 !" o_jmp_e $end
$var wire 32 q" o_imm32_e [31:0] $end
$var wire 1 3" o_branch_e $end
$var wire 1 4" o_alu_src_e $end
$var wire 3 r" o_alu_ctl_e [2:0] $end
$var wire 32 s" i_pc_p4_d [31:0] $end
$var wire 32 t" i_imm32_d [31:0] $end
$var wire 1 7 i_id_ex_flush $end
$var reg 3 u" r_alu_ctl_e [2:0] $end
$var reg 1 4" r_alu_src_e $end
$var reg 1 3" r_branch_e $end
$var reg 32 v" r_imm32_e [31:0] $end
$var reg 1 !" r_jmp_e $end
$var reg 1 | r_mem_write_e $end
$var reg 7 w" r_opcode_e [6:0] $end
$var reg 32 x" r_pc_p4_e [31:0] $end
$var reg 5 y" r_rd_e [4:0] $end
$var reg 1 k r_reg_wr_e $end
$var reg 32 z" r_regs_do1_e [31:0] $end
$var reg 32 {" r_regs_do2_e [31:0] $end
$var reg 2 |" r_result_src_e [1:0] $end
$var reg 5 }" r_rs1_e [4:0] $end
$var reg 5 ~" r_rs2_e [4:0] $end
$upscope $end
$scope module IF_ID_Inst $end
$var wire 1 " i_clk $end
$var wire 1 A i_clk_en $end
$var wire 4 !# i_exception_code_f [3:0] $end
$var wire 1 '" i_if_id_flush_exception_m $end
$var wire 32 "# i_pc_p4_f [31:0] $end
$var wire 1 # i_rst $end
$var wire 32 ## o_pc_p4_d [31:0] $end
$var wire 32 $# o_instr_d [31:0] $end
$var wire 32 %# i_instr_f [31:0] $end
$var wire 1 5 i_if_id_stall $end
$var wire 1 6 i_if_id_flush $end
$var reg 32 &# r_instr [31:0] $end
$var reg 32 '# r_pc_p4 [31:0] $end
$upscope $end
$scope module IF_Mem_Decoder_Inst $end
$var wire 32 (# i_addr_f [31:0] $end
$var wire 1 _ o_rv_en $end
$var wire 1 ] o_tv_en $end
$var wire 1 \ o_txt_en $end
$var wire 1 )# w_dm_en $end
$upscope $end
$scope module Imm_32_Inst $end
$var wire 3 *# i_imm_ctl [2:0] $end
$var wire 25 +# i_instr_bits [24:0] $end
$var wire 32 ,# o_extended_imm [31:0] $end
$upscope $end
$scope module MEM_WB_Inst $end
$var wire 32 -# i_alu_out_m [31:0] $end
$var wire 1 " i_clk $end
$var wire 1 A i_clk_en $end
$var wire 32 .# i_pc_p4_m [31:0] $end
$var wire 5 /# i_rd_m [4:0] $end
$var wire 1 l i_reg_wr_m $end
$var wire 2 0# i_result_src_m [1:0] $end
$var wire 1 # i_rst $end
$var wire 1 j o_reg_wr_w $end
$var wire 2 1# o_result_src_w [1:0] $end
$var wire 5 2# o_rd_w [4:0] $end
$var wire 32 3# o_pc_p4_w [31:0] $end
$var wire 32 4# o_mem_out_w [31:0] $end
$var wire 32 5# o_alu_out_w [31:0] $end
$var wire 32 6# i_mem_out_m [31:0] $end
$var reg 32 7# r_alu_out_m [31:0] $end
$var reg 32 8# r_mem_out_m [31:0] $end
$var reg 32 9# r_pc_p4_m [31:0] $end
$var reg 5 :# r_rd_m [4:0] $end
$var reg 1 ;# r_reg_wr_m $end
$var reg 2 <# r_result_src_m [1:0] $end
$upscope $end
$scope module Mem_Calculation_Unit_Inst $end
$var wire 32 =# i_addr_m [31:0] $end
$var wire 1 ." o_glb_en $end
$var wire 1 "" o_io_en $end
$var wire 1 ^ o_stk_en $end
$var wire 32 ># o_effective_addr_m [31:0] $end
$var wire 1 2" o_dm_en $end
$upscope $end
$scope module Mem_Data_Inst $end
$var wire 1 " i_clk $end
$var wire 1 A i_clk_enable $end
$var wire 32 ?# i_mem_addr [31:0] $end
$var wire 32 @# i_mem_data [31:0] $end
$var wire 1 { i_mem_write $end
$var wire 1 # i_rst $end
$var wire 32 A# o_mem_data [31:0] $end
$var integer 32 B# i [31:0] $end
$upscope $end
$scope module Mem_Instr_Inst $end
$var wire 1 # i_rst $end
$var wire 32 C# o_instr [31:0] $end
$var wire 32 D# i_adr [31:0] $end
$var integer 32 E# i [31:0] $end
$upscope $end
$scope module PC_Inst $end
$var wire 1 " i_clk $end
$var wire 1 A i_clk_en $end
$var wire 32 F# i_di [31:0] $end
$var wire 1 # i_rst $end
$var wire 1 S i_wr_en $end
$var wire 32 G# o_do [31:0] $end
$var reg 32 H# r_pc [31:0] $end
$upscope $end
$scope module Reg_File_Inst $end
$var wire 1 " i_clk $end
$var wire 1 A i_clk_enable $end
$var wire 5 I# i_rd_addr_1 [4:0] $end
$var wire 5 J# i_rd_addr_2 [4:0] $end
$var wire 1 j i_reg_write $end
$var wire 1 # i_rst $end
$var wire 5 K# i_wr_addr [4:0] $end
$var wire 32 L# i_wr_data [31:0] $end
$var wire 32 M# o_rd_data_1 [31:0] $end
$var wire 32 N# o_rd_data_2 [31:0] $end
$var wire 32 O# o_x0_debug [31:0] $end
$var wire 32 P# o_x1_debug [31:0] $end
$var wire 32 Q# o_x2_debug [31:0] $end
$var wire 32 R# o_x3_debug [31:0] $end
$var wire 32 S# o_x4_debug [31:0] $end
$var wire 32 T# o_x5_debug [31:0] $end
$var wire 32 U# o_x6_debug [31:0] $end
$var wire 32 V# o_x7_debug [31:0] $end
$var wire 32 W# o_x8_debug [31:0] $end
$var wire 32 X# o_x9_debug [31:0] $end
$var integer 32 Y# i [31:0] $end
$upscope $end
$upscope $end
$scope module Hazard_Unit_Inst $end
$var wire 1 2 i_jmp_e $end
$var wire 2 Z# i_pc_src_e [1:0] $end
$var wire 5 [# i_rd_e [4:0] $end
$var wire 5 \# i_rd_m [4:0] $end
$var wire 5 ]# i_rd_wb [4:0] $end
$var wire 1 ) i_res_src_b0_e $end
$var wire 5 ^# i_rs1_d [4:0] $end
$var wire 5 _# i_rs1_e [4:0] $end
$var wire 5 `# i_rs2_d [4:0] $end
$var wire 5 a# i_rs2_e [4:0] $end
$var wire 1 5 o_if_id_stall $end
$var wire 1 . o_pc_stall $end
$var wire 1 b# w_lw_stall $end
$var wire 1 6 o_if_id_flush $end
$var wire 1 7 o_id_ex_flush $end
$var wire 2 c# o_fw_b_e [1:0] $end
$var wire 1 9 o_fw_b_d $end
$var wire 2 d# o_fw_a_e [1:0] $end
$var wire 1 ; o_fw_a_d $end
$upscope $end
$upscope $end
$upscope $end
$enddefinitions $end
#0
$dumpvars
b0 d#
b0 c#
0b#
b0 a#
b0 `#
b0 _#
b0 ^#
b0 ]#
b0 \#
b0 [#
b0 Z#
b100000 Y#
b0 X#
b0 W#
b0 V#
b0 U#
b0 T#
b0 S#
b0 R#
b0 Q#
b0 P#
b0 O#
b0 N#
b0 M#
b0 L#
b0 K#
b0 J#
b0 I#
b1000000000000000000 H#
b1000000000000000000 G#
b1000000000000000000 F#
b11111111111111111111 E#
b1000000000000000000 D#
b101111111000100110111 C#
b11111111111111111111 B#
b100000000110000001000000001 A#
b0 @#
b0 ?#
b0 >#
b0 =#
b0 <#
0;#
b0 :#
b0 9#
b0 8#
b0 7#
b100000000110000001000000001 6#
b0 5#
b0 4#
b0 3#
b0 2#
b0 1#
b0 0#
b0 /#
b0 .#
b0 -#
b0 ,#
b0 +#
b0 *#
0)#
b1000000000000000000 (#
b0 '#
b0 &#
b101111111000100110111 %#
b0 $#
b0 ##
b1000000000000000100 "#
b1111 !#
b0 ~"
b0 }"
b0 |"
b0 {"
b0 z"
b0 y"
b0 x"
b0 w"
b0 v"
b0 u"
b0 t"
b0 s"
b0 r"
b0 q"
b0 p"
b0 o"
b0 n"
b0 m"
b0 l"
b0 k"
b0 j"
b0 i"
b0 h"
b0 g"
b0 f"
b0 e"
b0 d"
b0 c"
b0 b"
b0 a"
b0 `"
b0 _"
b1111 ^"
b1111 ]"
0\"
b1 ["
b1000000000000000000 Z"
b110111 Y"
b0 X"
b0 W"
0V"
b0 U"
b0 T"
0S"
b0 R"
b0 Q"
b1111 P"
b0 O"
b0 N"
b0 M"
b0 L"
b0 K"
0J"
b0 I"
b0 H"
b0 G"
b0 F"
b0 E"
b0 D"
b0 C"
b0 B"
b0 A"
b1 @"
b0 ?"
b0 >"
b0 ="
b0 <"
b0 ;"
b0 :"
b0 9"
b0 8"
b0 7"
b0 6"
b0 5"
04"
03"
02"
b0 1"
b1111 0"
b1111 /"
0."
b0 -"
b0 ,"
b0 +"
b0 *"
b0 )"
0("
0'"
b0 &"
b0 %"
b0 $"
b101111111000100110111 #"
0""
0!"
b100000000110000001000000001 ~
b0 }
0|
0{
b0 z
b1000000000000000000 y
b1000000000000000000 x
b0 w
b0 v
b1000000000000000100 u
b0 t
b0 s
b0 r
0q
0p
b0 o
b0 n
b0 m
0l
0k
0j
b0 i
b0 h
b0 g
b0 f
b0 e
b0 d
b0 c
b0 b
b0 a
b0 `
1_
0^
0]
0\
1[
b0 Z
b0 Y
b0 X
b0 W
b0 V
b0 U
b0 T
1S
b0 R
b0 Q
b0 P
b0 O
b0 N
b0 M
b0 L
b0 K
b0 J
b0 I
b0 H
b0 G
b0 F
b0 E
b0 D
0C
0B
0A
b0 @
0?
0>
b0 =
0<
0;
b0 :
09
b0 8
07
06
05
b0 4
03
02
01
b0 0
b0 /
0.
b0 -
b0 ,
b0 +
0*
0)
b0 (
b0 '
b0 &
b0 %
b0 $
1#
1"
0!
$end
#5
0"
#10
1A
b1000000000000000100 y
b1000000000000000100 Z"
b1000000000000000100 (#
b1000000000000000100 F#
1"
0#
1!
#13
0!
#15
0"
#20
b110 @
b110 G
b110 J
b110 Q
b110 a"
b100 4
b100 F
b100 N
b100 R
b100 *#
1?
b11 D
b11 L
b11 O
1*
b1000000000000001000 y
b1000000000000001000 Z"
b1000000000000001000 (#
b1000000000000001000 F#
b101111111000000000000 &"
b101111111000000000000 t"
b101111111000000000000 ,#
b10011 Y"
b11111111111100010000000100010011 #"
b11111111111100010000000100010011 %#
b11111111111100010000000100010011 C#
b110111 b"
b10 c"
b1 h"
b1111 g"
b1 %
b1 :"
b1 `#
b1111 '
b1111 ;"
b1111 ^#
b10111111100010 +#
b1 J#
b1111 I#
b111 =
b111 I
b111 K
b111 ="
b110111 0
b110111 H
b110111 P
b110111 <"
b1000000000000001000 u
b1000000000000001000 "#
b1000000000000000100 x
b1000000000000000100 D#
b1000000000000000100 G#
b1000000000000000100 H#
b1000000000000000100 w
b1000000000000000100 s"
b1000000000000000100 ##
b1000000000000000100 '#
b101111111000100110111 $"
b101111111000100110111 $#
b101111111000100110111 &#
b100000000110000001000000001 }
b100000000110000001000000001 4#
b100000000110000001000000001 8#
1"
#25
0"
#30
b11111111111111111111111111111111 &"
b11111111111111111111111111111111 t"
b11111111111111111111111111111111 ,#
b0 @
b0 G
b0 J
b0 Q
b0 a"
b0 4
b0 F
b0 N
b0 R
b0 *#
b0 D
b0 L
b0 O
0[
b1000000000000001100 y
b1000000000000001100 Z"
b1000000000000001100 (#
b1000000000000001100 F#
b101111111000000000000 8"
b101111111000000000000 B"
b110111 Y"
b101111111000000000000 7"
b101111111000000000000 C"
b101111111000000000000 E"
b101111111000000000000 X"
b10011 b"
b11111 h"
b10 g"
b11111 %
b11111 :"
b11111 `#
b10 '
b10 ;"
b10 ^#
b1111111111110001000000010 +#
b11111 J#
b10 I#
1<
b0 =
b0 I
b0 K
b0 ="
b10011 0
b10011 H
b10011 P
b10011 <"
b100100000000110110111 #"
b100100000000110110111 %#
b100100000000110110111 C#
14"
b110 9"
b110 D"
b110 r"
b110 u"
1k
b110111 z
b110111 p"
b110111 w"
b101111111000000000000 %"
b101111111000000000000 q"
b101111111000000000000 v"
b1000000000000000100 v
b1000000000000000100 O"
b1000000000000000100 i"
b1000000000000000100 x"
b10 -
b10 V
b10 [#
b10 o
b10 N"
b10 `"
b10 o"
b10 y"
b1 $
b1 Z
b1 a#
b1 `
b1 j"
b1 ~"
b1111 &
b1111 Y
b1111 _#
b1111 a
b1111 k"
b1111 }"
b1000000000000001000 w
b1000000000000001000 s"
b1000000000000001000 ##
b1000000000000001000 '#
b11111111111100010000000100010011 $"
b11111111111100010000000100010011 $#
b11111111111100010000000100010011 &#
b1000000000000001100 u
b1000000000000001100 "#
b1000000000000001000 x
b1000000000000001000 D#
b1000000000000001000 G#
b1000000000000001000 H#
1"
#35
0"
#40
b110 @
b110 G
b110 J
b110 Q
b110 a"
b100 4
b100 F
b100 N
b100 R
b100 *#
b11 D
b11 L
b11 O
1?
1*
b101111111000000000000 *"
b101111111000000000000 A"
b1000000000000010000 y
b1000000000000010000 Z"
b1000000000000010000 (#
b1000000000000010000 F#
b100100000000000000000 &"
b100100000000000000000 t"
b100100000000000000000 ,#
1^
b10 :
b10 ?"
b10 d#
b0 ~
b0 6#
b0 A#
b10000000001010110111 #"
b10000000001010110111 %#
b10000000001010110111 C#
b110111 b"
b11 c"
b1 h"
b100 g"
b1 %
b1 :"
b1 `#
b100 '
b100 ;"
b100 ^#
b10010000000011 +#
b1 J#
b100 I#
0<
b110111 0
b110111 H
b110111 P
b110111 <"
b101111110111111111111 7"
b101111110111111111111 C"
b101111110111111111111 E"
b101111110111111111111 X"
b11111111111111111111111111111111 8"
b11111111111111111111111111111111 B"
12"
b1111111000000000000 1"
b1111111000000000000 >#
b1111111000000000000 ?#
b1000000000000010000 u
b1000000000000010000 "#
b1000000000000001100 x
b1000000000000001100 D#
b1000000000000001100 G#
b1000000000000001100 H#
b1000000000000001100 w
b1000000000000001100 s"
b1000000000000001100 ##
b1000000000000001100 '#
b100100000000110110111 $"
b100100000000110110111 $#
b100100000000110110111 &#
b0 9"
b0 D"
b0 r"
b0 u"
b10011 z
b10011 p"
b10011 w"
b11111111111111111111111111111111 %"
b11111111111111111111111111111111 q"
b11111111111111111111111111111111 v"
b1000000000000001000 v
b1000000000000001000 O"
b1000000000000001000 i"
b1000000000000001000 x"
b11111 $
b11111 Z
b11111 a#
b11111 `
b11111 j"
b11111 ~"
b10 &
b10 Y
b10 _#
b10 a
b10 k"
b10 }"
1l
1V"
b1000000000000000100 t
b1000000000000000100 H"
b1000000000000000100 .#
b1000000000000000100 T"
b101111111000000000000 6"
b101111111000000000000 L"
b101111111000000000000 Q"
b101111111000000000000 -#
b101111111000000000000 =#
b10 ,
b10 W
b10 \#
b10 n
b10 K"
b10 U"
b10 /#
1"
#45
0"
#50
b10000000000000000000 &"
b10000000000000000000 t"
b10000000000000000000 ,#
b1000000000000010100 y
b1000000000000010100 Z"
b1000000000000010100 (#
b1000000000000010100 F#
b1111110111111111111 1"
b1111110111111111111 >#
b1111110111111111111 ?#
b0 *"
b0 A"
b0 :
b0 ?"
b0 d#
b1100111 Y"
b101111111000000000000 b
b101111111000000000000 L#
b100100000000000000000 7"
b100100000000000000000 C"
b100100000000000000000 E"
b100100000000000000000 X"
b100100000000000000000 8"
b100100000000000000000 B"
b101 c"
b0 h"
b10000 g"
b0 %
b0 :"
b0 `#
b10000 '
b10000 ;"
b10000 ^#
b1000000000101 +#
b0 J#
b10000 I#
b101000000001100111 #"
b101000000001100111 %#
b101000000001100111 C#
1j
1;#
b1000000000000000100 s
b1000000000000000100 3#
b1000000000000000100 9#
b10 +
b10 X
b10 ]#
b10 m
b10 2#
b10 :#
b10 K#
b0 }
b0 4#
b0 8#
b101111111000000000000 5"
b101111111000000000000 5#
b101111111000000000000 7#
b1000000000000001000 t
b1000000000000001000 H"
b1000000000000001000 .#
b1000000000000001000 T"
b101111110111111111111 6"
b101111110111111111111 L"
b101111110111111111111 Q"
b101111110111111111111 -#
b101111110111111111111 =#
b110 9"
b110 D"
b110 r"
b110 u"
b110111 z
b110111 p"
b110111 w"
b100100000000000000000 %"
b100100000000000000000 q"
b100100000000000000000 v"
b1000000000000001100 v
b1000000000000001100 O"
b1000000000000001100 i"
b1000000000000001100 x"
b11 -
b11 V
b11 [#
b11 o
b11 N"
b11 `"
b11 o"
b11 y"
b1 $
b1 Z
b1 a#
b1 `
b1 j"
b1 ~"
b100 &
b100 Y
b100 _#
b100 a
b100 k"
b100 }"
b1000000000000010000 w
b1000000000000010000 s"
b1000000000000010000 ##
b1000000000000010000 '#
b10000000001010110111 $"
b10000000001010110111 $#
b10000000001010110111 &#
b1000000000000010100 u
b1000000000000010100 "#
b1000000000000010000 x
b1000000000000010000 D#
b1000000000000010000 G#
b1000000000000010000 H#
1"
#55
0"
#60
b0 &"
b0 t"
b0 ,#
b0 @
b0 G
b0 J
b0 Q
b0 a"
b0 4
b0 F
b0 N
b0 R
b0 *#
b0 D
b0 L
b0 O
13
1B
b10 (
b10 E
b10 M
b10 T
b10 f"
b10000000000000000000 7"
b10000000000000000000 C"
b10000000000000000000 E"
b10000000000000000000 X"
b1000000000000011000 y
b1000000000000011000 Z"
b1000000000000011000 (#
b1000000000000011000 F#
b0 Y"
1."
0^
b100000000000000000 1"
b100000000000000000 >#
b100000000000000000 ?#
b0 #"
b0 %#
b0 C#
b1100111 b"
b0 c"
b101 g"
b101 '
b101 ;"
b101 ^#
b10100000000 +#
b101 I#
b1100111 0
b1100111 H
b1100111 P
b1100111 <"
b10000000000000000000 8"
b10000000000000000000 B"
b101111110111111111111 b
b101111110111111111111 L#
b1000000000000011000 u
b1000000000000011000 "#
b1000000000000010100 x
b1000000000000010100 D#
b1000000000000010100 G#
b1000000000000010100 H#
b1000000000000010100 w
b1000000000000010100 s"
b1000000000000010100 ##
b1000000000000010100 '#
b101000000001100111 $"
b101000000001100111 $#
b101000000001100111 &#
b101111111000000000000 Q#
b10000000000000000000 %"
b10000000000000000000 q"
b10000000000000000000 v"
b1000000000000010000 v
b1000000000000010000 O"
b1000000000000010000 i"
b1000000000000010000 x"
b101 -
b101 V
b101 [#
b101 o
b101 N"
b101 `"
b101 o"
b101 y"
b0 $
b0 Z
b0 a#
b0 `
b0 j"
b0 ~"
b10000 &
b10000 Y
b10000 _#
b10000 a
b10000 k"
b10000 }"
b1000000000000001100 t
b1000000000000001100 H"
b1000000000000001100 .#
b1000000000000001100 T"
b100100000000000000000 6"
b100100000000000000000 L"
b100100000000000000000 Q"
b100100000000000000000 -#
b100100000000000000000 =#
b11 ,
b11 W
b11 \#
b11 n
b11 K"
b11 U"
b11 /#
b1000000000000001000 s
b1000000000000001000 3#
b1000000000000001000 9#
b101111110111111111111 5"
b101111110111111111111 5#
b101111110111111111111 7#
1"
#65
0"
