Pipeline/waveform.vcd
$date
	Fri Aug 15 17:34:26 2025
$end
$version
	Icarus Verilog
$end
$timescale
	1s
$end
$scope module Pipeline_Tb $end
$var reg 1 ! t_r_btn_enable_d_s_o $end
$var reg 1 " t_r_clk $end
$var reg 1 # t_r_rst $end
$scope module DUT $end
$var wire 1 ! i_btn_enable_d_s_o $end
$var wire 1 " i_clk $end
$var wire 1 # i_rst $end
$var wire 5 $ w_rs2_e [4:0] $end
$var wire 5 % w_rs2_d [4:0] $end
$var wire 5 & w_rs1_e [4:0] $end
$var wire 5 ' w_rs1_d [4:0] $end
$var wire 2 ( w_result_src [1:0] $end
$var wire 1 ) w_res_src_b0_e $end
$var wire 1 * w_reg_write $end
$var wire 5 + w_rd_w [4:0] $end
$var wire 5 , w_rd_m [4:0] $end
$var wire 5 - w_rd_e [4:0] $end
$var wire 1 . w_pc_stall $end
$var wire 2 / w_pc_src_e [1:0] $end
$var wire 7 0 w_opcode [6:0] $end
$var wire 1 1 w_mem_write $end
$var wire 1 2 w_jmp_e $end
$var wire 1 3 w_jmp_d $end
$var wire 3 4 w_imm_src [2:0] $end
$var wire 1 5 w_if_id_stall $end
$var wire 1 6 w_if_id_flush $end
$var wire 1 7 w_id_ex_flush $end
$var wire 2 8 w_fw_b_e [1:0] $end
$var wire 1 9 w_fw_b_d $end
$var wire 2 : w_fw_a_e [1:0] $end
$var wire 1 ; w_fw_a_d $end
$var wire 1 < w_f7_b6 $end
$var wire 3 = w_f3 [2:0] $end
$var wire 1 > w_branch $end
$var wire 1 ? w_alu_src $end
$var wire 3 @ w_alu_ctl [2:0] $end
$var reg 1 A r_clk_en $end
$scope module Control_Path_Inst $end
$var wire 1 > o_branch $end
$var wire 1 3 o_jmp $end
$var wire 1 B w_jmp $end
$var wire 1 C w_branch $end
$var wire 2 D w_alu_op [1:0] $end
$var wire 2 E o_result_src [1:0] $end
$var wire 1 * o_reg_write $end
$var wire 1 1 o_mem_write $end
$var wire 3 F o_imm_src [2:0] $end
$var wire 1 ? o_alu_src $end
$var wire 3 G o_alu_ctl [2:0] $end
$var wire 7 H i_opcode [6:0] $end
$var wire 1 < i_f7_b6 $end
$var wire 3 I i_f3 [2:0] $end
$scope module Control_ALU_Inst $end
$var wire 3 J o_alu_ctl [2:0] $end
$var wire 1 < i_f7_b6 $end
$var wire 3 K i_f3 [2:0] $end
$var wire 2 L i_alu_op [1:0] $end
$upscope $end
$scope module Control_Unit_Inst $end
$var wire 2 M o_result_src [1:0] $end
$var wire 1 * o_reg_write $end
$var wire 1 1 o_mem_write $end
$var wire 1 B o_jmp $end
$var wire 3 N o_imm_src [2:0] $end
$var wire 1 C o_branch $end
$var wire 1 ? o_alu_src $end
$var wire 2 O o_alu_op [1:0] $end
$var wire 7 P i_opcode [6:0] $end
$upscope $end
$upscope $end
$scope module Data_Path_Inst $end
$var wire 3 Q i_alu_ctl_d [2:0] $end
$var wire 1 ? i_alu_src_d $end
$var wire 1 > i_branch_d $end
$var wire 1 " i_clk $end
$var wire 1 A i_clk_en $end
$var wire 3 R i_imm_src_d [2:0] $end
$var wire 1 3 i_jmp_d $end
$var wire 1 1 i_mem_write_d $end
$var wire 1 S i_pc_wr_en_h $end
$var wire 1 * i_reg_write_d $end
$var wire 2 T i_result_src_d [1:0] $end
$var wire 1 # i_rst $end
$var wire 1 2 o_jmp_e $end
$var wire 2 U o_pc_src_e [1:0] $end
$var wire 5 V o_rd_e [4:0] $end
$var wire 5 W o_rd_m [4:0] $end
$var wire 5 X o_rd_w [4:0] $end
$var wire 5 Y o_rs1_e [4:0] $end
$var wire 5 Z o_rs2_e [4:0] $end
$var wire 1 [ w_pc_in_txt $end
$var wire 1 \ w_zero_e $end
$var wire 1 ] w_txt_en_f $end
$var wire 1 ^ w_tv_en_f $end
$var wire 1 _ w_stk_en_m $end
$var wire 1 ` w_rv_en_f $end
$var wire 5 a w_rs2_e [4:0] $end
$var wire 5 b w_rs1_e [4:0] $end
$var wire 32 c w_result_w [31:0] $end
$var wire 2 d w_result_src_w [1:0] $end
$var wire 2 e w_result_src_m [1:0] $end
$var wire 2 f w_result_src_e [1:0] $end
$var wire 32 g w_regs_do2_e [31:0] $end
$var wire 32 h w_regs_do2_d [31:0] $end
$var wire 32 i w_regs_do1_e [31:0] $end
$var wire 32 j w_regs_do1_d [31:0] $end
$var wire 1 k w_reg_write_w $end
$var wire 1 l w_reg_write_e $end
$var wire 1 m w_reg_wr_m $end
$var wire 5 n w_rd_w [4:0] $end
$var wire 5 o w_rd_m [4:0] $end
$var wire 5 p w_rd_e [4:0] $end
$var wire 1 q w_pc_trap_sel_f $end
$var wire 1 r w_pc_trap_sel_e $end
$var wire 2 s w_pc_src_e [1:0] $end
$var wire 32 t w_pc_p4_w [31:0] $end
$var wire 32 u w_pc_p4_m [31:0] $end
$var wire 32 v w_pc_p4_f [31:0] $end
$var wire 32 w w_pc_p4_e [31:0] $end
$var wire 32 x w_pc_p4_d [31:0] $end
$var wire 32 y w_pc_out_f [31:0] $end
$var wire 32 z w_pc_in_f [31:0] $end
$var wire 7 { w_opcode_e [6:0] $end
$var wire 1 | w_mem_write_m $end
$var wire 1 } w_mem_write_e $end
$var wire 32 ~ w_mem_out_w [31:0] $end
$var wire 32 !" w_mem_out_m [31:0] $end
$var wire 1 "" w_jmp_e $end
$var wire 1 #" w_io_en_m $end
$var wire 32 $" w_instr_f [31:0] $end
$var wire 32 %" w_instr_d [31:0] $end
$var wire 32 &" w_imm_32b_e [31:0] $end
$var wire 32 '" w_imm_32b_d [31:0] $end
$var wire 1 (" w_if_id_flush_exception_m $end
$var wire 1 )" w_id_ex_flush_exception_m $end
$var wire 32 *" w_haz_rs2_e [31:0] $end
$var wire 32 +" w_haz_rs1_e [31:0] $end
$var wire 32 ," w_haz_do2_d [31:0] $end
$var wire 32 -" w_haz_do1_d [31:0] $end
$var wire 32 ." w_haz_b_m [31:0] $end
$var wire 1 /" w_glb_en_m $end
$var wire 4 0" w_exception_code_f [3:0] $end
$var wire 4 1" w_exception_code_e [3:0] $end
$var wire 32 2" w_effective_addr_m [31:0] $end
$var wire 1 3" w_dm_en_m $end
$var wire 1 4" w_branch_e $end
$var wire 1 5" w_alu_src_e $end
$var wire 32 6" w_alu_out_w [31:0] $end
$var wire 32 7" w_alu_out_m [31:0] $end
$var wire 32 8" w_alu_out_e [31:0] $end
$var wire 32 9" w_alu_op_b_e [31:0] $end
$var wire 3 :" w_alu_ctl_e [2:0] $end
$var wire 5 ;" o_rs2_d [4:0] $end
$var wire 5 <" o_rs1_d [4:0] $end
$var wire 1 ) o_res_src_b0_e $end
$var wire 7 =" o_opcode_d [6:0] $end
$var wire 1 < o_f7_b6_d $end
$var wire 3 >" o_f3_d [2:0] $end
$var wire 1 5 i_if_id_stall_h $end
$var wire 1 6 i_if_id_flush_h $end
$var wire 1 7 i_id_ex_flush_h $end
$var wire 2 ?" i_fw_b_e [1:0] $end
$var wire 1 9 i_fw_b_d $end
$var wire 2 @" i_fw_a_e [1:0] $end
$var wire 1 ; i_fw_a_d $end
$var reg 1 A" r_reset_permission $end
$var reg 1 B" r_trap_permission $end
$scope module ALU_Main_Inst $end
$var wire 32 C" i_op_a [31:0] $end
$var wire 32 D" i_op_b [31:0] $end
$var wire 1 \ o_zero $end
$var wire 32 E" o_alu_out [31:0] $end
$var wire 3 F" i_alu_op [2:0] $end
$upscope $end
$scope module EX_MEM_Inst $end
$var wire 32 G" i_alu_out_e [31:0] $end
$var wire 1 " i_clk $end
$var wire 1 A i_clk_en $end
$var wire 32 H" i_haz_b_e [31:0] $end
$var wire 1 # i_rst $end
$var wire 32 I" o_haz_b_m [31:0] $end
$var wire 1 )" o_id_ex_flush_exception_m $end
$var wire 1 (" o_if_id_flush_exception_m $end
$var wire 1 | o_mem_write_m $end
$var wire 32 J" o_pc_p4_m [31:0] $end
$var wire 1 m o_reg_wr_m $end
$var wire 2 K" o_result_src_m [1:0] $end
$var wire 1 L" w_exception_ex_stage $end
$var wire 5 M" o_rd_m [4:0] $end
$var wire 32 N" o_alu_out_m [31:0] $end
$var wire 2 O" i_result_src_e [1:0] $end
$var wire 1 l i_reg_wr_e $end
$var wire 5 P" i_rd_e [4:0] $end
$var wire 32 Q" i_pc_p4_e [31:0] $end
$var wire 1 } i_mem_write_e $end
$var wire 4 R" i_exception_code_e [3:0] $end
$var reg 32 S" r_alu_out_e [31:0] $end
$var reg 32 T" r_haz_b_e [31:0] $end
$var reg 1 U" r_mem_write_e $end
$var reg 32 V" r_pc_p4_e [31:0] $end
$var reg 5 W" r_rd_e [4:0] $end
$var reg 1 X" r_reg_wr_e $end
$var reg 2 Y" r_result_src_e [1:0] $end
$upscope $end
$scope module Exception_Signals_Handler_Inst $end
$var wire 32 Z" i_alu_out_e [31:0] $end
$var wire 7 [" i_opcode_f [6:0] $end
$var wire 1 A" i_reset_permission $end
$var wire 1 B" i_trap_permission $end
$var wire 1 \" w_rv_en $end
$var wire 1 ]" w_tv_en $end
$var wire 1 ^" w_txt_en $end
$var wire 1 _" w_pc_f_b20 $end
$var wire 1 `" w_pc_f_b19 $end
$var wire 1 a" w_pc_f_b18 $end
$var wire 4 b" o_exception_code_f [3:0] $end
$var wire 4 c" o_exception_code_e [3:0] $end
$var wire 2 d" i_res_src_e [1:0] $end
$var wire 1 l i_reg_write_e $end
$var wire 5 e" i_rd_e [4:0] $end
$var wire 32 f" i_pc_f [31:0] $end
$var wire 1 } i_mem_write_e $end
$upscope $end
$scope module ID_EX_Inst $end
$var wire 3 g" i_alu_ctl_d [2:0] $end
$var wire 1 ? i_alu_src_d $end
$var wire 1 > i_branch_d $end
$var wire 1 " i_clk $end
$var wire 1 A i_clk_en $end
$var wire 1 )" i_id_ex_flush_exception_m $end
$var wire 1 3 i_jmp_d $end
$var wire 1 1 i_mem_write_d $end
$var wire 7 h" i_opcode_d [6:0] $end
$var wire 5 i" i_rd_d [4:0] $end
$var wire 1 * i_reg_wr_d $end
$var wire 32 j" i_regs_do1_d [31:0] $end
$var wire 32 k" i_regs_do2_d [31:0] $end
$var wire 2 l" i_result_src_d [1:0] $end
$var wire 5 m" i_rs1_d [4:0] $end
$var wire 5 n" i_rs2_d [4:0] $end
$var wire 1 # i_rst $end
$var wire 32 o" o_pc_p4_e [31:0] $end
$var wire 5 p" o_rs2_e [4:0] $end
$var wire 5 q" o_rs1_e [4:0] $end
$var wire 2 r" o_result_src_e [1:0] $end
$var wire 32 s" o_regs_do2_e [31:0] $end
$var wire 32 t" o_regs_do1_e [31:0] $end
$var wire 1 l o_reg_wr_e $end
$var wire 5 u" o_rd_e [4:0] $end
$var wire 7 v" o_opcode_e [6:0] $end
$var wire 1 } o_mem_write_e $end
$var wire 1 "" o_jmp_e $end
$var wire 32 w" o_imm32_e [31:0] $end
$var wire 1 4" o_branch_e $end
$var wire 1 5" o_alu_src_e $end
$var wire 3 x" o_alu_ctl_e [2:0] $end
$var wire 32 y" i_pc_p4_d [31:0] $end
$var wire 32 z" i_imm32_d [31:0] $end
$var wire 1 7 i_id_ex_flush $end
$var reg 3 {" r_alu_ctl_e [2:0] $end
$var reg 1 5" r_alu_src_e $end
$var reg 1 4" r_branch_e $end
$var reg 32 |" r_imm32_e [31:0] $end
$var reg 1 "" r_jmp_e $end
$var reg 1 } r_mem_write_e $end
$var reg 7 }" r_opcode_e [6:0] $end
$var reg 32 ~" r_pc_p4_e [31:0] $end
$var reg 5 !# r_rd_e [4:0] $end
$var reg 1 l r_reg_wr_e $end
$var reg 32 "# r_regs_do1_e [31:0] $end
$var reg 32 ## r_regs_do2_e [31:0] $end
$var reg 2 $# r_result_src_e [1:0] $end
$var reg 5 %# r_rs1_e [4:0] $end
$var reg 5 &# r_rs2_e [4:0] $end
$upscope $end
$scope module IF_ID_Inst $end
$var wire 1 " i_clk $end
$var wire 1 A i_clk_en $end
$var wire 4 '# i_exception_code_f [3:0] $end
$var wire 1 (" i_if_id_flush_exception_m $end
$var wire 32 (# i_pc_p4_f [31:0] $end
$var wire 1 # i_rst $end
$var wire 32 )# o_pc_p4_d [31:0] $end
$var wire 32 *# o_instr_d [31:0] $end
$var wire 32 +# i_instr_f [31:0] $end
$var wire 1 5 i_if_id_stall $end
$var wire 1 6 i_if_id_flush $end
$var reg 32 ,# r_instr [31:0] $end
$var reg 32 -# r_pc_p4 [31:0] $end
$upscope $end
$scope module IF_Mem_Decoder_Inst $end
$var wire 32 .# i_addr_f [31:0] $end
$var wire 1 ` o_rv_en $end
$var wire 1 ^ o_tv_en $end
$var wire 1 ] o_txt_en $end
$var wire 1 /# w_dm_en $end
$upscope $end
$scope module Imm_32_Inst $end
$var wire 3 0# i_imm_ctl [2:0] $end
$var wire 25 1# i_instr_bits [24:0] $end
$var wire 32 2# o_extended_imm [31:0] $end
$upscope $end
$scope module MEM_WB_Inst $end
$var wire 32 3# i_alu_out_m [31:0] $end
$var wire 1 " i_clk $end
$var wire 1 A i_clk_en $end
$var wire 32 4# i_pc_p4_m [31:0] $end
$var wire 5 5# i_rd_m [4:0] $end
$var wire 1 m i_reg_wr_m $end
$var wire 2 6# i_result_src_m [1:0] $end
$var wire 1 # i_rst $end
$var wire 1 k o_reg_wr_w $end
$var wire 2 7# o_result_src_w [1:0] $end
$var wire 5 8# o_rd_w [4:0] $end
$var wire 32 9# o_pc_p4_w [31:0] $end
$var wire 32 :# o_mem_out_w [31:0] $end
$var wire 32 ;# o_alu_out_w [31:0] $end
$var wire 32 <# i_mem_out_m [31:0] $end
$var reg 32 =# r_alu_out_m [31:0] $end
$var reg 32 ># r_mem_out_m [31:0] $end
$var reg 32 ?# r_pc_p4_m [31:0] $end
$var reg 5 @# r_rd_m [4:0] $end
$var reg 1 A# r_reg_wr_m $end
$var reg 2 B# r_result_src_m [1:0] $end
$upscope $end
$scope module Mem_Calculation_Unit_Inst $end
$var wire 32 C# i_addr_m [31:0] $end
$var wire 1 /" o_glb_en $end
$var wire 1 #" o_io_en $end
$var wire 1 _ o_stk_en $end
$var wire 32 D# o_effective_addr_m [31:0] $end
$var wire 1 3" o_dm_en $end
$upscope $end
$scope module Mem_Data_Inst $end
$var wire 1 " i_clk $end
$var wire 1 A i_clk_enable $end
$var wire 32 E# i_mem_addr [31:0] $end
$var wire 32 F# i_mem_data [31:0] $end
$var wire 1 | i_mem_write $end
$var wire 1 # i_rst $end
$var wire 32 G# o_mem_data [31:0] $end
$var integer 32 H# i [31:0] $end
$upscope $end
$scope module Mem_Instr_Inst $end
$var wire 1 # i_rst $end
$var wire 32 I# o_instr [31:0] $end
$var wire 32 J# i_adr [31:0] $end
$var integer 32 K# i [31:0] $end
$upscope $end
$scope module PC_Inst $end
$var wire 1 " i_clk $end
$var wire 1 A i_clk_en $end
$var wire 32 L# i_di [31:0] $end
$var wire 1 # i_rst $end
$var wire 1 S i_wr_en $end
$var wire 32 M# o_do [31:0] $end
$var reg 32 N# r_pc [31:0] $end
$upscope $end
$scope module Reg_File_Inst $end
$var wire 1 " i_clk $end
$var wire 1 A i_clk_enable $end
$var wire 5 O# i_rd_addr_1 [4:0] $end
$var wire 5 P# i_rd_addr_2 [4:0] $end
$var wire 1 k i_reg_write $end
$var wire 1 # i_rst $end
$var wire 5 Q# i_wr_addr [4:0] $end
$var wire 32 R# i_wr_data [31:0] $end
$var wire 32 S# o_rd_data_1 [31:0] $end
$var wire 32 T# o_rd_data_2 [31:0] $end
$var wire 32 U# o_x0_debug [31:0] $end
$var wire 32 V# o_x1_debug [31:0] $end
$var wire 32 W# o_x2_debug [31:0] $end
$var wire 32 X# o_x3_debug [31:0] $end
$var wire 32 Y# o_x4_debug [31:0] $end
$var wire 32 Z# o_x5_debug [31:0] $end
$var wire 32 [# o_x6_debug [31:0] $end
$var wire 32 \# o_x7_debug [31:0] $end
$var wire 32 ]# o_x8_debug [31:0] $end
$var wire 32 ^# o_x9_debug [31:0] $end
$var integer 32 _# i [31:0] $end
$upscope $end
$upscope $end
$scope module Hazard_Unit_Inst $end
$var wire 1 2 i_jmp_e $end
$var wire 2 `# i_pc_src_e [1:0] $end
$var wire 5 a# i_rd_e [4:0] $end
$var wire 5 b# i_rd_m [4:0] $end
$var wire 5 c# i_rd_wb [4:0] $end
$var wire 1 ) i_res_src_b0_e $end
$var wire 5 d# i_rs1_d [4:0] $end
$var wire 5 e# i_rs1_e [4:0] $end
$var wire 5 f# i_rs2_d [4:0] $end
$var wire 5 g# i_rs2_e [4:0] $end
$var wire 1 5 o_if_id_stall $end
$var wire 1 . o_pc_stall $end
$var wire 1 h# w_lw_stall $end
$var wire 1 6 o_if_id_flush $end
$var wire 1 7 o_id_ex_flush $end
$var wire 2 i# o_fw_b_e [1:0] $end
$var wire 1 9 o_fw_b_d $end
$var wire 2 j# o_fw_a_e [1:0] $end
$var wire 1 ; o_fw_a_d $end
$upscope $end
$upscope $end
$upscope $end
$enddefinitions $end
#0
$dumpvars
b0 j#
b0 i#
0h#
b0 g#
b0 f#
b0 e#
b0 d#
b0 c#
b0 b#
b0 a#
b0 `#
b100000 _#
b0 ^#
b0 ]#
b0 \#
b0 [#
b0 Z#
b0 Y#
b0 X#
b0 W#
b0 V#
b0 U#
b0 T#
b0 S#
b0 R#
b0 Q#
b0 P#
b0 O#
b1000000000000000000 N#
b1000000000000000000 M#
b1000000000000000000 L#
b11111111111111111111 K#
b1000000000000000000 J#
b101111111000100110111 I#
b11111111111111111111 H#
b100000000110000001000000001 G#
b0 F#
b0 E#
b0 D#
b0 C#
b0 B#
0A#
b0 @#
b0 ?#
b0 >#
b0 =#
b100000000110000001000000001 <#
b0 ;#
b0 :#
b0 9#
b0 8#
b0 7#
b0 6#
b0 5#
b0 4#
b0 3#
b0 2#
b0 1#
b0 0#
0/#
b1000000000000000000 .#
b0 -#
b0 ,#
b101111111000100110111 +#
b0 *#
b0 )#
b1000000000000000100 (#
b1111 '#
b0 &#
b0 %#
b0 $#
b0 ##
b0 "#
b0 !#
b0 ~"
b0 }"
b0 |"
b0 {"
b0 z"
b0 y"
b0 x"
b0 w"
b0 v"
b0 u"
b0 t"
b0 s"
b0 r"
b0 q"
b0 p"
b0 o"
b0 n"
b0 m"
b0 l"
b0 k"
b0 j"
b0 i"
b0 h"
b0 g"
b1000000000000000000 f"
b0 e"
b0 d"
b1111 c"
b1111 b"
1a"
0`"
0_"
0^"
0]"
1\"
b110111 ["
b0 Z"
b0 Y"
0X"
b0 W"
b0 V"
0U"
b0 T"
b0 S"
b1111 R"
b0 Q"
b0 P"
b0 O"
b0 N"
b0 M"
0L"
b0 K"
b0 J"
b0 I"
b0 H"
b0 G"
b0 F"
b0 E"
b0 D"
b0 C"
0B"
1A"
b0 @"
b0 ?"
b0 >"
b0 ="
b0 <"
b0 ;"
b0 :"
b0 9"
b0 8"
b0 7"
b0 6"
05"
04"
03"
b0 2"
b1111 1"
b1111 0"
0/"
b0 ."
b0 -"
b0 ,"
b0 +"
b0 *"
0)"
0("
b0 '"
b0 &"
b0 %"
b101111111000100110111 $"
0#"
0""
b100000000110000001000000001 !"
b0 ~
0}
0|
b0 {
b1000000000000000000 z
b1000000000000000000 y
b0 x
b0 w
b1000000000000000100 v
b0 u
b0 t
b0 s
0r
0q
b0 p
b0 o
b0 n
0m
0l
0k
b0 j
b0 i
b0 h
b0 g
b0 f
b0 e
b0 d
b0 c
b0 b
b0 a
1`
0_
0^
0]
1\
0[
b0 Z
b0 Y
b0 X
b0 W
b0 V
b0 U
b0 T
1S
b0 R
b0 Q
b0 P
b0 O
b0 N
b0 M
b0 L
b0 K
b0 J
b0 I
b0 H
b0 G
b0 F
b0 E
b0 D
0C
0B
0A
b0 @
0?
0>
b0 =
0<
0;
b0 :
09
b0 8
07
06
05
b0 4
03
02
01
b0 0
b0 /
0.
b0 -
b0 ,
b0 +
0*
0)
b0 (
b0 '
b0 &
b0 %
b0 $
1#
1"
0!
$end
#5
0"
#10
1A
b1000000000000000100 z
b1000000000000000100 .#
b1000000000000000100 L#
1"
0#
1!
#13
0!
#15
0"
#20
b110 @
b110 G
b110 J
b110 Q
b110 g"
b100 4
b100 F
b100 N
b100 R
b100 0#
1?
b11 D
b11 L
b11 O
1*
b1000000000000001000 z
b1000000000000001000 .#
b1000000000000001000 L#
b101111111000000000000 '"
b101111111000000000000 z"
b101111111000000000000 2#
b10011 ["
b11111111111100010000000100010011 $"
b11111111111100010000000100010011 +#
b11111111111100010000000100010011 I#
b110111 h"
b10 i"
b1 n"
b1111 m"
b1 %
b1 ;"
b1 f#
b1111 '
b1111 <"
b1111 d#
b10111111100010 1#
b1 P#
b1111 O#
b111 =
b111 I
b111 K
b111 >"
b110111 0
b110111 H
b110111 P
b110111 ="
b1000000000000001000 v
b1000000000000001000 (#
b1000000000000000100 y
b1000000000000000100 f"
b1000000000000000100 J#
b1000000000000000100 M#
b1000000000000000100 N#
b1000000000000000100 x
b1000000000000000100 y"
b1000000000000000100 )#
b1000000000000000100 -#
b101111111000100110111 %"
b101111111000100110111 *#
b101111111000100110111 ,#
b100000000110000001000000001 ~
b100000000110000001000000001 :#
b100000000110000001000000001 >#
1"
#25
0"
#30
b11111111111111111111111111111111 '"
b11111111111111111111111111111111 z"
b11111111111111111111111111111111 2#
b0 @
b0 G
b0 J
b0 Q
b0 g"
b0 4
b0 F
b0 N
b0 R
b0 0#
b0 D
b0 L
b0 O
0\
b1000000000000001100 z
b1000000000000001100 .#
b1000000000000001100 L#
b101111111000000000000 9"
b101111111000000000000 D"
b110111 ["
b101111111000000000000 8"
b101111111000000000000 E"
b101111111000000000000 G"
b101111111000000000000 Z"
b10011 h"
b11111 n"
b10 m"
b11111 %
b11111 ;"
b11111 f#
b10 '
b10 <"
b10 d#
b1111111111110001000000010 1#
b11111 P#
b10 O#
1<
b0 =
b0 I
b0 K
b0 >"
b10011 0
b10011 H
b10011 P
b10011 ="
b100100000000110110111 $"
b100100000000110110111 +#
b100100000000110110111 I#
15"
b110 :"
b110 F"
b110 x"
b110 {"
1l
b110111 {
b110111 v"
b110111 }"
b101111111000000000000 &"
b101111111000000000000 w"
b101111111000000000000 |"
b1000000000000000100 w
b1000000000000000100 Q"
b1000000000000000100 o"
b1000000000000000100 ~"
b10 -
b10 V
b10 a#
b10 p
b10 P"
b10 e"
b10 u"
b10 !#
b1 $
b1 Z
b1 g#
b1 a
b1 p"
b1 &#
b1111 &
b1111 Y
b1111 e#
b1111 b
b1111 q"
b1111 %#
b1000000000000001000 x
b1000000000000001000 y"
b1000000000000001000 )#
b1000000000000001000 -#
b11111111111100010000000100010011 %"
b11111111111100010000000100010011 *#
b11111111111100010000000100010011 ,#
b1000000000000001100 v
b1000000000000001100 (#
b1000000000000001000 y
b1000000000000001000 f"
b1000000000000001000 J#
b1000000000000001000 M#
b1000000000000001000 N#
1"
#35
0"
#40
b110 @
b110 G
b110 J
b110 Q
b110 g"
b100 4
b100 F
b100 N
b100 R
b100 0#
b11 D
b11 L
b11 O
1?
1*
b101111111000000000000 +"
b101111111000000000000 C"
b1000000000000010000 z
b1000000000000010000 .#
b1000000000000010000 L#
b100100000000000000000 '"
b100100000000000000000 z"
b100100000000000000000 2#
1_
b10 :
b10 @"
b10 j#
b0 !"
b0 <#
b0 G#
b10000000001010110111 $"
b10000000001010110111 +#
b10000000001010110111 I#
b110111 h"
b11 i"
b1 n"
b100 m"
b1 %
b1 ;"
b1 f#
b100 '
b100 <"
b100 d#
b10010000000011 1#
b1 P#
b100 O#
0<
b110111 0
b110111 H
b110111 P
b110111 ="
b101111110111111111111 8"
b101111110111111111111 E"
b101111110111111111111 G"
b101111110111111111111 Z"
b11111111111111111111111111111111 9"
b11111111111111111111111111111111 D"
13"
b1111111000000000000 2"
b1111111000000000000 D#
b1111111000000000000 E#
b1000000000000010000 v
b1000000000000010000 (#
b1000000000000001100 y
b1000000000000001100 f"
b1000000000000001100 J#
b1000000000000001100 M#
b1000000000000001100 N#
b1000000000000001100 x
b1000000000000001100 y"
b1000000000000001100 )#
b1000000000000001100 -#
b100100000000110110111 %"
b100100000000110110111 *#
b100100000000110110111 ,#
b0 :"
b0 F"
b0 x"
b0 {"
b10011 {
b10011 v"
b10011 }"
b11111111111111111111111111111111 &"
b11111111111111111111111111111111 w"
b11111111111111111111111111111111 |"
b1000000000000001000 w
b1000000000000001000 Q"
b1000000000000001000 o"
b1000000000000001000 ~"
b11111 $
b11111 Z
b11111 g#
b11111 a
b11111 p"
b11111 &#
b10 &
b10 Y
b10 e#
b10 b
b10 q"
b10 %#
1m
1X"
b1000000000000000100 u
b1000000000000000100 J"
b1000000000000000100 4#
b1000000000000000100 V"
b101111111000000000000 7"
b101111111000000000000 N"
b101111111000000000000 S"
b101111111000000000000 3#
b101111111000000000000 C#
b10 ,
b10 W
b10 b#
b10 o
b10 M"
b10 W"
b10 5#
1"
#45
0"
#50
b10000000000000000000 '"
b10000000000000000000 z"
b10000000000000000000 2#
b1000000000000010100 z
b1000000000000010100 .#
b1000000000000010100 L#
b1111110111111111111 2"
b1111110111111111111 D#
b1111110111111111111 E#
b0 +"
b0 C"
b0 :
b0 @"
b0 j#
b1100111 ["
b101111111000000000000 c
b101111111000000000000 R#
b100100000000000000000 8"
b100100000000000000000 E"
b100100000000000000000 G"
b100100000000000000000 Z"
b100100000000000000000 9"
b100100000000000000000 D"
b101 i"
b0 n"
b10000 m"
b0 %
b0 ;"
b0 f#
b10000 '
b10000 <"
b10000 d#
b1000000000101 1#
b0 P#
b10000 O#
b101000000001100111 $"
b101000000001100111 +#
b101000000001100111 I#
1k
1A#
b1000000000000000100 t
b1000000000000000100 9#
b1000000000000000100 ?#
b10 +
b10 X
b10 c#
b10 n
b10 8#
b10 @#
b10 Q#
b0 ~
b0 :#
b0 >#
b101111111000000000000 6"
b101111111000000000000 ;#
b101111111000000000000 =#
b1000000000000001000 u
b1000000000000001000 J"
b1000000000000001000 4#
b1000000000000001000 V"
b101111110111111111111 7"
b101111110111111111111 N"
b101111110111111111111 S"
b101111110111111111111 3#
b101111110111111111111 C#
b110 :"
b110 F"
b110 x"
b110 {"
b110111 {
b110111 v"
b110111 }"
b100100000000000000000 &"
b100100000000000000000 w"
b100100000000000000000 |"
b1000000000000001100 w
b1000000000000001100 Q"
b1000000000000001100 o"
b1000000000000001100 ~"
b11 -
b11 V
b11 a#
b11 p
b11 P"
b11 e"
b11 u"
b11 !#
b1 $
b1 Z
b1 g#
b1 a
b1 p"
b1 &#
b100 &
b100 Y
b100 e#
b100 b
b100 q"
b100 %#
b1000000000000010000 x
b1000000000000010000 y"
b1000000000000010000 )#
b1000000000000010000 -#
b10000000001010110111 %"
b10000000001010110111 *#
b10000000001010110111 ,#
b1000000000000010100 v
b1000000000000010100 (#
b1000000000000010000 y
b1000000000000010000 f"
b1000000000000010000 J#
b1000000000000010000 M#
b1000000000000010000 N#
1"
#55
0"
#60
b0 '"
b0 z"
b0 2#
b0 @
b0 G
b0 J
b0 Q
b0 g"
b0 4
b0 F
b0 N
b0 R
b0 0#
b0 D
b0 L
b0 O
13
1B
b10 (
b10 E
b10 M
b10 T
b10 l"
b10000000000000000000 8"
b10000000000000000000 E"
b10000000000000000000 G"
b10000000000000000000 Z"
b1000000000000011000 z
b1000000000000011000 .#
b1000000000000011000 L#
b0 ["
1/"
0_
b100000000000000000 2"
b100000000000000000 D#
b100000000000000000 E#
b0 $"
b0 +#
b0 I#
b1100111 h"
b0 i"
b101 m"
b101 '
b101 <"
b101 d#
b10100000000 1#
b101 O#
b1100111 0
b1100111 H
b1100111 P
b1100111 ="
b10000000000000000000 9"
b10000000000000000000 D"
b101111110111111111111 c
b101111110111111111111 R#
b1000000000000011000 v
b1000000000000011000 (#
b1000000000000010100 y
b1000000000000010100 f"
b1000000000000010100 J#
b1000000000000010100 M#
b1000000000000010100 N#
b1000000000000010100 x
b1000000000000010100 y"
b1000000000000010100 )#
b1000000000000010100 -#
b101000000001100111 %"
b101000000001100111 *#
b101000000001100111 ,#
b101111111000000000000 W#
b10000000000000000000 &"
b10000000000000000000 w"
b10000000000000000000 |"
b1000000000000010000 w
b1000000000000010000 Q"
b1000000000000010000 o"
b1000000000000010000 ~"
b101 -
b101 V
b101 a#
b101 p
b101 P"
b101 e"
b101 u"
b101 !#
b0 $
b0 Z
b0 g#
b0 a
b0 p"
b0 &#
b10000 &
b10000 Y
b10000 e#
b10000 b
b10000 q"
b10000 %#
b1000000000000001100 u
b1000000000000001100 J"
b1000000000000001100 4#
b1000000000000001100 V"
b100100000000000000000 7"
b100100000000000000000 N"
b100100000000000000000 S"
b100100000000000000000 3#
b100100000000000000000 C#
b11 ,
b11 W
b11 b#
b11 o
b11 M"
b11 W"
b11 5#
b1000000000000001000 t
b1000000000000001000 9#
b1000000000000001000 ?#
b101111110111111111111 6"
b101111110111111111111 ;#
b101111110111111111111 =#
1"
#65
0"
