Pipeline/waveform.vcd
$date
	Fri Aug 15 23:26:51 2025
$end
$version
	Icarus Verilog
$end
$timescale
	1s
$end
$scope module Pipeline_Tb $end
$var reg 1 ! t_r_btn_enable_d_s_o $end
$var reg 1 " t_r_clk $end
$var reg 1 # t_r_rst $end
$scope module DUT $end
$var wire 1 ! i_btn_enable_d_s_o $end
$var wire 1 " i_clk $end
$var wire 1 # i_rst $end
$var wire 5 $ w_rs2_e [4:0] $end
$var wire 5 % w_rs2_d [4:0] $end
$var wire 5 & w_rs1_e [4:0] $end
$var wire 5 ' w_rs1_d [4:0] $end
$var wire 2 ( w_result_src [1:0] $end
$var wire 1 ) w_res_src_b0_e $end
$var wire 1 * w_reg_write $end
$var wire 5 + w_rd_w [4:0] $end
$var wire 5 , w_rd_m [4:0] $end
$var wire 5 - w_rd_e [4:0] $end
$var wire 1 . w_pc_stall $end
$var wire 2 / w_pc_src_e [1:0] $end
$var wire 7 0 w_opcode [6:0] $end
$var wire 1 1 w_mem_write $end
$var wire 1 2 w_jmp_e $end
$var wire 1 3 w_jmp_d $end
$var wire 3 4 w_imm_src [2:0] $end
$var wire 1 5 w_if_id_stall $end
$var wire 1 6 w_if_id_flush $end
$var wire 1 7 w_id_ex_flush $end
$var wire 2 8 w_fw_b_e [1:0] $end
$var wire 1 9 w_fw_b_d $end
$var wire 2 : w_fw_a_e [1:0] $end
$var wire 1 ; w_fw_a_d $end
$var wire 1 < w_f7_b6 $end
$var wire 3 = w_f3 [2:0] $end
$var wire 1 > w_branch $end
$var wire 1 ? w_alu_src $end
$var wire 3 @ w_alu_ctl [2:0] $end
$var reg 1 A r_clk_en $end
$scope module Control_Path_Inst $end
$var wire 1 > o_branch $end
$var wire 1 3 o_jmp $end
$var wire 1 B w_jmp $end
$var wire 1 C w_branch $end
$var wire 2 D w_alu_op [1:0] $end
$var wire 2 E o_result_src [1:0] $end
$var wire 1 * o_reg_write $end
$var wire 1 1 o_mem_write $end
$var wire 3 F o_imm_src [2:0] $end
$var wire 1 ? o_alu_src $end
$var wire 3 G o_alu_ctl [2:0] $end
$var wire 7 H i_opcode [6:0] $end
$var wire 1 < i_f7_b6 $end
$var wire 3 I i_f3 [2:0] $end
$scope module Control_ALU_Inst $end
$var wire 3 J o_alu_ctl [2:0] $end
$var wire 1 < i_f7_b6 $end
$var wire 3 K i_f3 [2:0] $end
$var wire 2 L i_alu_op [1:0] $end
$upscope $end
$scope module Control_Unit_Inst $end
$var wire 2 M o_result_src [1:0] $end
$var wire 1 * o_reg_write $end
$var wire 1 1 o_mem_write $end
$var wire 1 B o_jmp $end
$var wire 3 N o_imm_src [2:0] $end
$var wire 1 C o_branch $end
$var wire 1 ? o_alu_src $end
$var wire 2 O o_alu_op [1:0] $end
$var wire 7 P i_opcode [6:0] $end
$upscope $end
$upscope $end
$scope module Data_Path_Inst $end
$var wire 3 Q i_alu_ctl_d [2:0] $end
$var wire 1 ? i_alu_src_d $end
$var wire 1 > i_branch_d $end
$var wire 1 " i_clk $end
$var wire 1 A i_clk_en $end
$var wire 3 R i_imm_src_d [2:0] $end
$var wire 1 3 i_jmp_d $end
$var wire 1 1 i_mem_write_d $end
$var wire 1 S i_pc_wr_en_h $end
$var wire 1 * i_reg_write_d $end
$var wire 2 T i_result_src_d [1:0] $end
$var wire 1 # i_rst $end
$var wire 1 2 o_jmp_e $end
$var wire 2 U o_pc_src_e [1:0] $end
$var wire 5 V o_rd_e [4:0] $end
$var wire 5 W o_rd_m [4:0] $end
$var wire 5 X o_rd_w [4:0] $end
$var wire 5 Y o_rs1_e [4:0] $end
$var wire 5 Z o_rs2_e [4:0] $end
$var wire 1 [ w_pc_in_txt $end
$var wire 1 \ w_zero_e $end
$var wire 5 ] w_rs2_e [4:0] $end
$var wire 5 ^ w_rs1_e [4:0] $end
$var wire 32 _ w_result_w [31:0] $end
$var wire 2 ` w_result_src_w [1:0] $end
$var wire 2 a w_result_src_m [1:0] $end
$var wire 2 b w_result_src_e [1:0] $end
$var wire 32 c w_regs_do2_e [31:0] $end
$var wire 32 d w_regs_do2_d [31:0] $end
$var wire 32 e w_regs_do1_e [31:0] $end
$var wire 32 f w_regs_do1_d [31:0] $end
$var wire 1 g w_reg_write_w $end
$var wire 1 h w_reg_write_e $end
$var wire 1 i w_reg_wr_m $end
$var wire 5 j w_rd_w [4:0] $end
$var wire 5 k w_rd_m [4:0] $end
$var wire 5 l w_rd_e [4:0] $end
$var wire 1 m w_pc_trap_sel_f $end
$var wire 1 n w_pc_trap_sel_e $end
$var wire 32 o w_pc_target_branch_or_jal_e [31:0] $end
$var wire 2 p w_pc_src_e [1:0] $end
$var wire 32 q w_pc_p4_w [31:0] $end
$var wire 32 r w_pc_p4_m [31:0] $end
$var wire 32 s w_pc_p4_f [31:0] $end
$var wire 32 t w_pc_p4_e [31:0] $end
$var wire 32 u w_pc_p4_d [31:0] $end
$var wire 32 v w_pc_out_f [31:0] $end
$var wire 32 w w_pc_in_f [31:0] $end
$var wire 32 x w_pc_e [31:0] $end
$var wire 32 y w_pc_d [31:0] $end
$var wire 7 z w_opcode_e [6:0] $end
$var wire 1 { w_mem_write_m $end
$var wire 1 | w_mem_write_e $end
$var wire 32 } w_mem_out_w [31:0] $end
$var wire 32 ~ w_mem_out_m [31:0] $end
$var wire 1 !" w_jmp_e $end
$var wire 32 "" w_instr_f [31:0] $end
$var wire 32 #" w_instr_d [31:0] $end
$var wire 32 $" w_imm_32b_e [31:0] $end
$var wire 32 %" w_imm_32b_d [31:0] $end
$var wire 1 &" w_if_id_flush_exception_m $end
$var wire 1 '" w_id_ex_flush_exception_m $end
$var wire 32 (" w_haz_rs2_e [31:0] $end
$var wire 32 )" w_haz_rs1_e [31:0] $end
$var wire 32 *" w_haz_do2_d [31:0] $end
$var wire 32 +" w_haz_do1_d [31:0] $end
$var wire 32 ," w_haz_b_m [31:0] $end
$var wire 4 -" w_exception_code_f [3:0] $end
$var wire 4 ." w_exception_code_e [3:0] $end
$var wire 32 /" w_effective_addr_m [31:0] $end
$var wire 1 0" w_dm_en_m $end
$var wire 1 1" w_branch_e $end
$var wire 1 2" w_alu_src_e $end
$var wire 32 3" w_alu_out_w [31:0] $end
$var wire 32 4" w_alu_out_m [31:0] $end
$var wire 32 5" w_alu_out_e [31:0] $end
$var wire 32 6" w_alu_op_b_e [31:0] $end
$var wire 3 7" w_alu_ctl_e [2:0] $end
$var wire 5 8" o_rs2_d [4:0] $end
$var wire 5 9" o_rs1_d [4:0] $end
$var wire 1 ) o_res_src_b0_e $end
$var wire 7 :" o_opcode_d [6:0] $end
$var wire 1 < o_f7_b6_d $end
$var wire 3 ;" o_f3_d [2:0] $end
$var wire 1 5 i_if_id_stall_h $end
$var wire 1 6 i_if_id_flush_h $end
$var wire 1 7 i_id_ex_flush_h $end
$var wire 2 <" i_fw_b_e [1:0] $end
$var wire 1 9 i_fw_b_d $end
$var wire 2 =" i_fw_a_e [1:0] $end
$var wire 1 ; i_fw_a_d $end
$var reg 1 >" r_reset_permission $end
$var reg 1 ?" r_trap_permission $end
$scope module ALU_Main_Inst $end
$var wire 32 @" i_op_a [31:0] $end
$var wire 32 A" i_op_b [31:0] $end
$var wire 1 \ o_zero $end
$var wire 32 B" o_alu_out [31:0] $end
$var wire 3 C" i_alu_op [2:0] $end
$upscope $end
$scope module EX_MEM_Inst $end
$var wire 32 D" i_alu_out_e [31:0] $end
$var wire 1 " i_clk $end
$var wire 1 A i_clk_en $end
$var wire 32 E" i_haz_b_e [31:0] $end
$var wire 1 # i_rst $end
$var wire 32 F" o_haz_b_m [31:0] $end
$var wire 1 '" o_id_ex_flush_exception_m $end
$var wire 1 &" o_if_id_flush_exception_m $end
$var wire 1 { o_mem_write_m $end
$var wire 32 G" o_pc_p4_m [31:0] $end
$var wire 1 i o_reg_wr_m $end
$var wire 2 H" o_result_src_m [1:0] $end
$var wire 1 I" w_exception_ex_stage $end
$var wire 5 J" o_rd_m [4:0] $end
$var wire 32 K" o_alu_out_m [31:0] $end
$var wire 2 L" i_result_src_e [1:0] $end
$var wire 1 h i_reg_wr_e $end
$var wire 5 M" i_rd_e [4:0] $end
$var wire 32 N" i_pc_p4_e [31:0] $end
$var wire 1 | i_mem_write_e $end
$var wire 4 O" i_exception_code_e [3:0] $end
$var reg 32 P" r_alu_out_e [31:0] $end
$var reg 32 Q" r_haz_b_e [31:0] $end
$var reg 1 R" r_mem_write_e $end
$var reg 32 S" r_pc_p4_e [31:0] $end
$var reg 5 T" r_rd_e [4:0] $end
$var reg 1 U" r_reg_wr_e $end
$var reg 2 V" r_result_src_e [1:0] $end
$upscope $end
$scope module Exception_Signals_Handler_Inst $end
$var wire 32 W" i_alu_out_e [31:0] $end
$var wire 7 X" i_opcode_f [6:0] $end
$var wire 1 >" i_reset_permission $end
$var wire 1 ?" i_trap_permission $end
$var wire 1 Y" w_rv_en $end
$var wire 1 Z" w_tv_en $end
$var wire 1 [" w_txt_en $end
$var wire 1 \" w_pc_f_b20 $end
$var wire 1 ]" w_pc_f_b19 $end
$var wire 1 ^" w_pc_f_b18 $end
$var wire 4 _" o_exception_code_f [3:0] $end
$var wire 4 `" o_exception_code_e [3:0] $end
$var wire 2 a" i_res_src_e [1:0] $end
$var wire 1 h i_reg_write_e $end
$var wire 5 b" i_rd_e [4:0] $end
$var wire 32 c" i_pc_f [31:0] $end
$var wire 1 | i_mem_write_e $end
$upscope $end
$scope module ID_EX_Inst $end
$var wire 3 d" i_alu_ctl_d [2:0] $end
$var wire 1 ? i_alu_src_d $end
$var wire 1 > i_branch_d $end
$var wire 1 " i_clk $end
$var wire 1 A i_clk_en $end
$var wire 1 '" i_id_ex_flush_exception_m $end
$var wire 1 3 i_jmp_d $end
$var wire 1 1 i_mem_write_d $end
$var wire 7 e" i_opcode_d [6:0] $end
$var wire 5 f" i_rd_d [4:0] $end
$var wire 1 * i_reg_wr_d $end
$var wire 32 g" i_regs_do1_d [31:0] $end
$var wire 32 h" i_regs_do2_d [31:0] $end
$var wire 2 i" i_result_src_d [1:0] $end
$var wire 5 j" i_rs1_d [4:0] $end
$var wire 5 k" i_rs2_d [4:0] $end
$var wire 1 # i_rst $end
$var wire 32 l" o_pc_p4_e [31:0] $end
$var wire 5 m" o_rs2_e [4:0] $end
$var wire 5 n" o_rs1_e [4:0] $end
$var wire 2 o" o_result_src_e [1:0] $end
$var wire 32 p" o_regs_do2_e [31:0] $end
$var wire 32 q" o_regs_do1_e [31:0] $end
$var wire 1 h o_reg_wr_e $end
$var wire 5 r" o_rd_e [4:0] $end
$var wire 32 s" o_pc_e [31:0] $end
$var wire 7 t" o_opcode_e [6:0] $end
$var wire 1 | o_mem_write_e $end
$var wire 1 !" o_jmp_e $end
$var wire 32 u" o_imm32_e [31:0] $end
$var wire 1 1" o_branch_e $end
$var wire 1 2" o_alu_src_e $end
$var wire 3 v" o_alu_ctl_e [2:0] $end
$var wire 32 w" i_pc_p4_d [31:0] $end
$var wire 32 x" i_pc_d [31:0] $end
$var wire 32 y" i_imm32_d [31:0] $end
$var wire 1 7 i_id_ex_flush $end
$var reg 3 z" r_alu_ctl_e [2:0] $end
$var reg 1 2" r_alu_src_e $end
$var reg 1 1" r_branch_e $end
$var reg 32 {" r_imm32_e [31:0] $end
$var reg 1 !" r_jmp_e $end
$var reg 1 | r_mem_write_e $end
$var reg 7 |" r_opcode_e [6:0] $end
$var reg 32 }" r_pc_e [31:0] $end
$var reg 32 ~" r_pc_p4_e [31:0] $end
$var reg 5 !# r_rd_e [4:0] $end
$var reg 1 h r_reg_wr_e $end
$var reg 32 "# r_regs_do1_e [31:0] $end
$var reg 32 ## r_regs_do2_e [31:0] $end
$var reg 2 $# r_result_src_e [1:0] $end
$var reg 5 %# r_rs1_e [4:0] $end
$var reg 5 &# r_rs2_e [4:0] $end
$upscope $end
$scope module IF_ID_Inst $end
$var wire 1 " i_clk $end
$var wire 1 A i_clk_en $end
$var wire 4 '# i_exception_code_f [3:0] $end
$var wire 1 &" i_if_id_flush_exception_m $end
$var wire 32 (# i_pc_p4_f [31:0] $end
$var wire 1 # i_rst $end
$var wire 32 )# o_pc_d [31:0] $end
$var wire 32 *# o_pc_p4_d [31:0] $end
$var wire 32 +# o_instr_d [31:0] $end
$var wire 32 ,# i_pc_f [31:0] $end
$var wire 32 -# i_instr_f [31:0] $end
$var wire 1 5 i_if_id_stall $end
$var wire 1 6 i_if_id_flush $end
$var reg 32 .# r_instr [31:0] $end
$var reg 32 /# r_pc_d [31:0] $end
$var reg 32 0# r_pc_p4 [31:0] $end
$upscope $end
$scope module Imm_32_Inst $end
$var wire 3 1# i_imm_ctl [2:0] $end
$var wire 25 2# i_instr_bits [24:0] $end
$var wire 32 3# o_extended_imm [31:0] $end
$upscope $end
$scope module MEM_WB_Inst $end
$var wire 32 4# i_alu_out_m [31:0] $end
$var wire 1 " i_clk $end
$var wire 1 A i_clk_en $end
$var wire 32 5# i_pc_p4_m [31:0] $end
$var wire 5 6# i_rd_m [4:0] $end
$var wire 1 i i_reg_wr_m $end
$var wire 2 7# i_result_src_m [1:0] $end
$var wire 1 # i_rst $end
$var wire 1 g o_reg_wr_w $end
$var wire 2 8# o_result_src_w [1:0] $end
$var wire 5 9# o_rd_w [4:0] $end
$var wire 32 :# o_pc_p4_w [31:0] $end
$var wire 32 ;# o_mem_out_w [31:0] $end
$var wire 32 <# o_alu_out_w [31:0] $end
$var wire 32 =# i_mem_out_m [31:0] $end
$var reg 32 ># r_alu_out_m [31:0] $end
$var reg 32 ?# r_mem_out_m [31:0] $end
$var reg 32 @# r_pc_p4_m [31:0] $end
$var reg 5 A# r_rd_m [4:0] $end
$var reg 1 B# r_reg_wr_m $end
$var reg 2 C# r_result_src_m [1:0] $end
$upscope $end
$scope module Mem_Calculation_Unit_Inst $end
$var wire 32 D# i_addr_m [31:0] $end
$var wire 32 E# o_effective_addr_m [31:0] $end
$var wire 1 0" o_dm_en $end
$upscope $end
$scope module Mem_Data_Inst $end
$var wire 1 " i_clk $end
$var wire 1 A i_clk_enable $end
$var wire 32 F# i_mem_addr [31:0] $end
$var wire 32 G# i_mem_data [31:0] $end
$var wire 1 { i_mem_write $end
$var wire 1 # i_rst $end
$var wire 32 H# o_mem_data [31:0] $end
$var integer 32 I# i [31:0] $end
$upscope $end
$scope module Mem_Instr_Inst $end
$var wire 1 # i_rst $end
$var wire 32 J# o_instr [31:0] $end
$var wire 32 K# i_adr [31:0] $end
$var integer 32 L# i [31:0] $end
$upscope $end
$scope module PC_Inst $end
$var wire 1 " i_clk $end
$var wire 1 A i_clk_en $end
$var wire 32 M# i_di [31:0] $end
$var wire 1 # i_rst $end
$var wire 1 S i_wr_en $end
$var wire 32 N# o_do [31:0] $end
$var reg 32 O# r_pc [31:0] $end
$upscope $end
$scope module Reg_File_Inst $end
$var wire 1 " i_clk $end
$var wire 1 A i_clk_enable $end
$var wire 5 P# i_rd_addr_1 [4:0] $end
$var wire 5 Q# i_rd_addr_2 [4:0] $end
$var wire 1 g i_reg_write $end
$var wire 1 # i_rst $end
$var wire 5 R# i_wr_addr [4:0] $end
$var wire 32 S# i_wr_data [31:0] $end
$var wire 32 T# o_rd_data_1 [31:0] $end
$var wire 32 U# o_rd_data_2 [31:0] $end
$var wire 32 V# o_x0_debug [31:0] $end
$var wire 32 W# o_x1_debug [31:0] $end
$var wire 32 X# o_x2_debug [31:0] $end
$var wire 32 Y# o_x3_debug [31:0] $end
$var wire 32 Z# o_x4_debug [31:0] $end
$var wire 32 [# o_x5_debug [31:0] $end
$var wire 32 \# o_x6_debug [31:0] $end
$var wire 32 ]# o_x7_debug [31:0] $end
$var wire 32 ^# o_x8_debug [31:0] $end
$var wire 32 _# o_x9_debug [31:0] $end
$var integer 32 `# i [31:0] $end
$upscope $end
$upscope $end
$scope module Hazard_Unit_Inst $end
$var wire 1 2 i_jmp_e $end
$var wire 2 a# i_pc_src_e [1:0] $end
$var wire 5 b# i_rd_e [4:0] $end
$var wire 5 c# i_rd_m [4:0] $end
$var wire 5 d# i_rd_wb [4:0] $end
$var wire 1 ) i_res_src_b0_e $end
$var wire 5 e# i_rs1_d [4:0] $end
$var wire 5 f# i_rs1_e [4:0] $end
$var wire 5 g# i_rs2_d [4:0] $end
$var wire 5 h# i_rs2_e [4:0] $end
$var wire 1 5 o_if_id_stall $end
$var wire 1 . o_pc_stall $end
$var wire 1 i# w_lw_stall $end
$var wire 1 6 o_if_id_flush $end
$var wire 1 7 o_id_ex_flush $end
$var wire 2 j# o_fw_b_e [1:0] $end
$var wire 1 9 o_fw_b_d $end
$var wire 2 k# o_fw_a_e [1:0] $end
$var wire 1 ; o_fw_a_d $end
$upscope $end
$upscope $end
$upscope $end
$enddefinitions $end
#0
$dumpvars
b0 k#
b0 j#
0i#
b0 h#
b0 g#
b0 f#
b0 e#
b0 d#
b0 c#
b0 b#
b0 a#
b100000 `#
b0 _#
b0 ^#
b0 ]#
b0 \#
b0 [#
b0 Z#
b0 Y#
b0 X#
b0 W#
b0 V#
b0 U#
b0 T#
b0 S#
b0 R#
b0 Q#
b0 P#
b1000000000000000000 O#
b1000000000000000000 N#
b1000000000000000000 M#
b11111111111111111111 L#
b1000000000000000000 K#
b1000000000001010010011 J#
b11111111111111111111 I#
b100000000110000001000000001 H#
b0 G#
b0 F#
b0 E#
b0 D#
b0 C#
0B#
b0 A#
b0 @#
b0 ?#
b0 >#
b100000000110000001000000001 =#
b0 <#
b0 ;#
b0 :#
b0 9#
b0 8#
b0 7#
b0 6#
b0 5#
b0 4#
b0 3#
b0 2#
b0 1#
b0 0#
b0 /#
b0 .#
b1000000000001010010011 -#
b1000000000000000000 ,#
b0 +#
b0 *#
b0 )#
b1000000000000000100 (#
b1111 '#
b0 &#
b0 %#
b0 $#
b0 ##
b0 "#
b0 !#
b0 ~"
b0 }"
b0 |"
b0 {"
b0 z"
b0 y"
b0 x"
b0 w"
b0 v"
b0 u"
b0 t"
b0 s"
b0 r"
b0 q"
b0 p"
b0 o"
b0 n"
b0 m"
b0 l"
b0 k"
b0 j"
b0 i"
b0 h"
b0 g"
b0 f"
b0 e"
b0 d"
b1000000000000000000 c"
b0 b"
b0 a"
b1111 `"
b1111 _"
1^"
0]"
0\"
0["
0Z"
1Y"
b10011 X"
b0 W"
b0 V"
0U"
b0 T"
b0 S"
0R"
b0 Q"
b0 P"
b1111 O"
b0 N"
b0 M"
b0 L"
b0 K"
b0 J"
0I"
b0 H"
b0 G"
b0 F"
b0 E"
b0 D"
b0 C"
b0 B"
b0 A"
b0 @"
0?"
1>"
b0 ="
b0 <"
b0 ;"
b0 :"
b0 9"
b0 8"
b0 7"
b0 6"
b0 5"
b0 4"
b0 3"
02"
01"
00"
b0 /"
b1111 ."
b1111 -"
b0 ,"
b0 +"
b0 *"
b0 )"
b0 ("
0'"
0&"
b0 %"
b0 $"
b0 #"
b1000000000001010010011 ""
0!"
b100000000110000001000000001 ~
b0 }
0|
0{
b0 z
b0 y
b0 x
b1000000000000000000 w
b1000000000000000000 v
b0 u
b0 t
b1000000000000000100 s
b0 r
b0 q
b0 p
b0 o
0n
0m
b0 l
b0 k
b0 j
0i
0h
0g
b0 f
b0 e
b0 d
b0 c
b0 b
b0 a
b0 `
b0 _
b0 ^
b0 ]
1\
0[
b0 Z
b0 Y
b0 X
b0 W
b0 V
b0 U
b0 T
1S
b0 R
b0 Q
b0 P
b0 O
b0 N
b0 M
b0 L
b0 K
b0 J
b0 I
b0 H
b0 G
b0 F
b0 E
b0 D
0C
0B
0A
b0 @
0?
0>
b0 =
0<
0;
b0 :
09
b0 8
07
06
05
b0 4
03
02
01
b0 0
b0 /
0.
b0 -
b0 ,
b0 +
0*
0)
b0 (
b0 '
b0 &
b0 %
b0 $
1#
1"
0!
$end
#5
0"
#10
1A
b1000000000000000100 w
b1000000000000000100 M#
1"
0#
1!
#13
0!
#15
0"
#20
1?
1*
b1000000000000001000 w
b1000000000000001000 M#
b10 %"
b10 y"
b10 3#
b110111 X"
b101111111000100110111 ""
b101111111000100110111 -#
b101111111000100110111 J#
b10011 e"
b101 f"
b10 k"
b10 %
b10 8"
b10 g#
b100000000000101 2#
b10 Q#
b10011 0
b10011 H
b10011 P
b10011 :"
b1000000000000001000 s
b1000000000000001000 (#
b1000000000000000100 v
b1000000000000000100 c"
b1000000000000000100 ,#
b1000000000000000100 K#
b1000000000000000100 N#
b1000000000000000100 O#
b1000000000000000000 y
b1000000000000000000 x"
b1000000000000000000 )#
b1000000000000000000 /#
b1000000000000000100 u
b1000000000000000100 w"
b1000000000000000100 *#
b1000000000000000100 0#
b1000000000001010010011 #"
b1000000000001010010011 +#
b1000000000001010010011 .#
b100000000110000001000000001 }
b100000000110000001000000001 ;#
b100000000110000001000000001 ?#
1"
#25
0"
#30
b110 @
b110 G
b110 J
b110 Q
b110 d"
0m
b100 4
b100 F
b100 N
b100 R
b100 1#
b11 D
b11 L
b11 O
b1111 -"
b1111 _"
b1111 '#
1?
1*
0\
b10 5"
b10 B"
b10 D"
b10 W"
b101111111000000000000 %"
b101111111000000000000 y"
b101111111000000000000 3#
b1000000000000001100 w
b1000000000000001100 M#
b10 6"
b10 A"
b10011 X"
b110111 e"
b10 f"
b1 k"
b1111 j"
b1 %
b1 8"
b1 g#
b1111 '
b1111 9"
b1111 e#
b10111111100010 2#
b1 Q#
b1111 P#
b111 =
b111 I
b111 K
b111 ;"
b110111 0
b110111 H
b110111 P
b110111 :"
b11111111111100010000000100010011 ""
b11111111111100010000000100010011 -#
b11111111111100010000000100010011 J#
12"
1h
b1000000000000000000 x
b1000000000000000000 s"
b1000000000000000000 }"
b10011 z
b10011 t"
b10011 |"
b1000000000000000010 o
b10 $"
b10 u"
b10 {"
b1000000000000000100 t
b1000000000000000100 N"
b1000000000000000100 l"
b1000000000000000100 ~"
b101 -
b101 V
b101 b#
b101 l
b101 M"
b101 b"
b101 r"
b101 !#
b10 $
b10 Z
b10 h#
b10 ]
b10 m"
b10 &#
b1000000000000000100 y
b1000000000000000100 x"
b1000000000000000100 )#
b1000000000000000100 /#
b1000000000000001000 u
b1000000000000001000 w"
b1000000000000001000 *#
b1000000000000001000 0#
b101111111000100110111 #"
b101111111000100110111 +#
b101111111000100110111 .#
b1000000000000001100 s
b1000000000000001100 (#
b1000000000000001000 v
b1000000000000001000 c"
b1000000000000001000 ,#
b1000000000000001000 K#
b1000000000000001000 N#
b1000000000000001000 O#
1"
#35
0"
#40
b11111111111111111111111111111111 %"
b11111111111111111111111111111111 y"
b11111111111111111111111111111111 3#
b0 @
b0 G
b0 J
b0 Q
b0 d"
b0 4
b0 F
b0 N
b0 R
b0 1#
b0 D
b0 L
b0 O
b1000000000000010000 w
b1000000000000010000 M#
b110111 X"
b10000000011 ~
b10000000011 =#
b10000000011 H#
b100100000000110110111 ""
b100100000000110110111 -#
b100100000000110110111 J#
b10011 e"
b11111 k"
b10 j"
b11111 %
b11111 8"
b11111 g#
b10 '
b10 9"
b10 e#
b1111111111110001000000010 2#
b11111 Q#
b10 P#
1<
b0 =
b0 I
b0 K
b0 ;"
b10011 0
b10011 H
b10011 P
b10011 :"
b101111111000000000000 5"
b101111111000000000000 B"
b101111111000000000000 D"
b101111111000000000000 W"
b101111111000000000000 6"
b101111111000000000000 A"
b10 /"
b10 E#
b10 F#
b1000000000000010000 s
b1000000000000010000 (#
b1000000000000001100 v
b1000000000000001100 c"
b1000000000000001100 ,#
b1000000000000001100 K#
b1000000000000001100 N#
b1000000000000001100 O#
b1000000000000001000 y
b1000000000000001000 x"
b1000000000000001000 )#
b1000000000000001000 /#
b1000000000000001100 u
b1000000000000001100 w"
b1000000000000001100 *#
b1000000000000001100 0#
b11111111111100010000000100010011 #"
b11111111111100010000000100010011 +#
b11111111111100010000000100010011 .#
b110 7"
b110 C"
b110 v"
b110 z"
b1000000000000000100 x
b1000000000000000100 s"
b1000000000000000100 }"
b110111 z
b110111 t"
b110111 |"
b110111111000000000100 o
b101111111000000000000 $"
b101111111000000000000 u"
b101111111000000000000 {"
b1000000000000001000 t
b1000000000000001000 N"
b1000000000000001000 l"
b1000000000000001000 ~"
b10 -
b10 V
b10 b#
b10 l
b10 M"
b10 b"
b10 r"
b10 !#
b1 $
b1 Z
b1 h#
b1 ]
b1 m"
b1 &#
b1111 &
b1111 Y
b1111 f#
b1111 ^
b1111 n"
b1111 %#
1i
1U"
b1000000000000000100 r
b1000000000000000100 G"
b1000000000000000100 5#
b1000000000000000100 S"
b10 4"
b10 K"
b10 P"
b10 4#
b10 D#
b101 ,
b101 W
b101 c#
b101 k
b101 J"
b101 T"
b101 6#
1"
#45
0"
#50
b110 @
b110 G
b110 J
b110 Q
b110 d"
0m
b100 4
b100 F
b100 N
b100 R
b100 1#
b11 D
b11 L
b11 O
b1111 -"
b1111 _"
b1111 '#
1?
1*
b101111111000000000000 )"
b101111111000000000000 @"
b100100000000000000000 %"
b100100000000000000000 y"
b100100000000000000000 3#
b1000000000000010100 w
b1000000000000010100 M#
b0 ~
b0 =#
b0 H#
b10 :
b10 ="
b10 k#
b10011 X"
b10 _
b10 S#
10"
b1111111000000000000 /"
b1111111000000000000 E#
b1111111000000000000 F#
b101111110111111111111 5"
b101111110111111111111 B"
b101111110111111111111 D"
b101111110111111111111 W"
b11111111111111111111111111111111 6"
b11111111111111111111111111111111 A"
b110111 e"
b11 f"
b1 k"
b100 j"
b1 %
b1 8"
b1 g#
b100 '
b100 9"
b100 e#
b10010000000011 2#
b1 Q#
b100 P#
0<
b110111 0
b110111 H
b110111 P
b110111 :"
b1010010011 ""
b1010010011 -#
b1010010011 J#
1g
1B#
b1000000000000000100 q
b1000000000000000100 :#
b1000000000000000100 @#
b101 +
b101 X
b101 d#
b101 j
b101 9#
b101 A#
b101 R#
b10000000011 }
b10000000011 ;#
b10000000011 ?#
b10 3"
b10 <#
b10 >#
b1000000000000001000 r
b1000000000000001000 G"
b1000000000000001000 5#
b1000000000000001000 S"
b101111111000000000000 4"
b101111111000000000000 K"
b101111111000000000000 P"
b101111111000000000000 4#
b101111111000000000000 D#
b10 ,
b10 W
b10 c#
b10 k
b10 J"
b10 T"
b10 6#
b0 7"
b0 C"
b0 v"
b0 z"
b1000000000000001000 x
b1000000000000001000 s"
b1000000000000001000 }"
b10011 z
b10011 t"
b10011 |"
b1000000000000000111 o
b11111111111111111111111111111111 $"
b11111111111111111111111111111111 u"
b11111111111111111111111111111111 {"
b1000000000000001100 t
b1000000000000001100 N"
b1000000000000001100 l"
b1000000000000001100 ~"
b11111 $
b11111 Z
b11111 h#
b11111 ]
b11111 m"
b11111 &#
b10 &
b10 Y
b10 f#
b10 ^
b10 n"
b10 %#
b1000000000000001100 y
b1000000000000001100 x"
b1000000000000001100 )#
b1000000000000001100 /#
b1000000000000010000 u
b1000000000000010000 w"
b1000000000000010000 *#
b1000000000000010000 0#
b100100000000110110111 #"
b100100000000110110111 +#
b100100000000110110111 .#
b1000000000000010100 s
b1000000000000010100 (#
b1000000000000010000 v
b1000000000000010000 c"
b1000000000000010000 ,#
b1000000000000010000 K#
b1000000000000010000 N#
b1000000000000010000 O#
1"
#55
0"
#60
b0 %"
b0 y"
b0 3#
b0 @
b0 G
b0 J
b0 Q
b0 d"
b0 4
b0 F
b0 N
b0 R
b0 1#
b0 D
b0 L
b0 O
b1000000000000011000 w
b1000000000000011000 M#
b110111 X"
b0 :
b0 ="
b0 k#
b1111110111111111111 /"
b1111110111111111111 E#
b1111110111111111111 F#
b0 )"
b0 @"
b10000000001010110111 ""
b10000000001010110111 -#
b10000000001010110111 J#
b10011 e"
b101 f"
b0 k"
b0 j"
b0 %
b0 8"
b0 g#
b0 '
b0 9"
b0 e#
b101 2#
b0 Q#
b0 P#
b10011 0
b10011 H
b10011 P
b10011 :"
b100100000000000000000 5"
b100100000000000000000 B"
b100100000000000000000 D"
b100100000000000000000 W"
b100100000000000000000 6"
b100100000000000000000 A"
b101111111000000000000 _
b101111111000000000000 S#
b1000000000000011000 s
b1000000000000011000 (#
b1000000000000010100 v
b1000000000000010100 c"
b1000000000000010100 ,#
b1000000000000010100 K#
b1000000000000010100 N#
b1000000000000010100 O#
b1000000000000010000 y
b1000000000000010000 x"
b1000000000000010000 )#
b1000000000000010000 /#
b1000000000000010100 u
b1000000000000010100 w"
b1000000000000010100 *#
b1000000000000010100 0#
b1010010011 #"
b1010010011 +#
b1010010011 .#
b10 [#
b110 7"
b110 C"
b110 v"
b110 z"
b1000000000000001100 x
b1000000000000001100 s"
b1000000000000001100 }"
b110111 z
b110111 t"
b110111 |"
b101100000000000001100 o
b100100000000000000000 $"
b100100000000000000000 u"
b100100000000000000000 {"
b1000000000000010000 t
b1000000000000010000 N"
b1000000000000010000 l"
b1000000000000010000 ~"
b11 -
b11 V
b11 b#
b11 l
b11 M"
b11 b"
b11 r"
b11 !#
b1 $
b1 Z
b1 h#
b1 ]
b1 m"
b1 &#
b100 &
b100 Y
b100 f#
b100 ^
b100 n"
b100 %#
b1000000000000001100 r
b1000000000000001100 G"
b1000000000000001100 5#
b1000000000000001100 S"
b101111110111111111111 4"
b101111110111111111111 K"
b101111110111111111111 P"
b101111110111111111111 4#
b101111110111111111111 D#
b1000000000000001000 q
b1000000000000001000 :#
b1000000000000001000 @#
b10 +
b10 X
b10 d#
b10 j
b10 9#
b10 A#
b10 R#
b0 }
b0 ;#
b0 ?#
b101111111000000000000 3"
b101111111000000000000 <#
b101111111000000000000 >#
1"
#65
0"
